@relation training_keyboard

@attribute livingLavidaLocaPacman {True,False}
@attribute livingLavidaLocaAzul {True,False}
@attribute livingLavidaLocaNaranja {True,False}
@attribute livingLavidaLocaCian {True,False}
@attribute livingLavidaLocaMandarina {True,False}
@attribute lightYearsAzul numeric
@attribute lightYearsNaranja numeric
@attribute lightYearsCian numeric
@attribute lightYearsMandarina numeric
@attribute patrullaX numeric
@attribute patrullaY numeric
@attribute scoreNow numeric
@attribute scoreFuture2 numeric
@attribute scoreFuture5 numeric
@attribute fate {North, West, East, South, Stop}

@data

False,True,True,True,True,10,8,7,8,12,10,0,-2,-5,Stop
False,True,True,True,True,13,6,5,6,12,10,-1,-3,-6,Stop
False,True,True,True,True,11,5,4,5,12,10,-2,-4,-7,Stop
False,True,True,True,True,13,6,10,2,12,11,-3,-5,-8,North
False,True,True,True,True,17,7,5,4,12,12,-4,-6,-9,North
False,True,True,True,True,16,9,7,3,13,12,-5,-7,190,East
False,True,True,True,True,15,8,10,0,14,12,-6,-8,189,East
False,True,True,True,True,18,13,11,0,15,12,-7,-9,188,East
False,True,True,True,True,18,11,11,2,15,13,-8,190,187,North
False,True,True,True,True,19,12,11,0,16,13,-9,189,186,East
False,True,True,True,False,19,13,11,-666,16,12,190,188,185,South
False,True,True,True,False,16,17,12,-666,16,11,189,187,184,South
False,True,True,True,False,17,9,7,-666,16,10,188,186,183,South
False,True,True,True,False,15,11,6,-666,16,9,187,185,182,South
False,True,True,True,False,11,11,4,-666,16,8,186,184,181,South
False,True,True,True,False,13,13,6,-666,15,8,185,183,180,West
False,True,True,True,False,11,7,5,-666,15,7,184,182,179,South
False,True,True,True,False,4,15,2,-666,15,6,183,181,178,South
False,True,True,True,False,9,13,4,-666,15,5,182,180,377,South
False,True,True,True,False,9,15,4,-666,15,4,181,179,376,South
False,True,True,True,False,14,17,0,-666,16,4,180,178,375,East
False,True,True,True,False,13,14,4,-666,16,5,179,377,374,North
False,True,True,True,False,13,17,0,-666,17,5,178,376,373,East
False,True,True,False,False,14,16,-666,-666,17,4,377,375,372,South
False,True,True,False,False,11,13,-666,-666,16,4,376,374,371,West
False,True,True,False,False,10,17,-666,-666,15,4,375,373,370,West
False,True,True,False,False,10,11,-666,-666,14,4,374,372,369,West
False,True,True,False,False,8,11,-666,-666,13,4,373,371,368,West
False,True,True,False,False,7,11,-666,-666,12,4,372,370,367,West
False,True,True,False,False,8,8,-666,-666,11,4,371,369,566,West
False,True,True,False,False,4,2,-666,-666,10,4,370,368,565,West
False,True,True,False,False,4,5,-666,-666,9,4,369,367,564,West
False,True,True,False,False,5,5,-666,-666,8,4,368,566,563,West
False,True,True,False,False,5,2,-666,-666,7,4,367,565,562,West
False,True,False,False,False,1,-666,-666,-666,6,4,566,564,561,West
False,True,True,True,True,10,7,9,18,1,11,0,-2,-5,Stop
False,True,True,True,True,11,10,7,16,1,11,-1,-3,194,Stop
False,True,True,True,True,12,1,6,16,2,11,-2,-4,193,East
False,True,True,True,True,12,3,4,13,3,11,-3,-5,392,East
False,True,True,True,True,10,4,4,11,4,11,-4,194,391,East
False,True,True,True,True,9,0,1,11,5,11,-5,193,390,East
False,True,False,True,True,10,-666,3,8,5,10,194,392,389,South
False,True,False,True,True,8,-666,1,7,6,10,193,391,388,East
False,True,False,False,True,9,-666,-666,9,6,11,392,390,387,North
False,True,False,False,True,7,-666,-666,5,7,11,391,389,386,East
False,True,False,False,True,9,-666,-666,7,8,11,390,388,385,East
False,True,False,False,True,5,-666,-666,6,9,11,389,387,384,East
False,True,False,False,True,7,-666,-666,7,10,11,388,386,583,East
False,True,False,False,True,5,-666,-666,2,10,10,387,385,582,South
False,True,False,False,True,5,-666,-666,6,11,10,386,384,581,East
False,True,False,False,True,9,-666,-666,2,11,9,385,583,580,South
False,True,False,False,True,11,-666,-666,4,12,9,384,582,579,East
False,True,True,True,True,18,12,12,16,14,3,0,-2,-5,Stop
False,True,True,True,True,14,14,19,16,14,3,-1,-3,-6,Stop
False,True,True,True,True,16,23,17,13,15,3,-2,-4,-7,East
False,True,True,True,True,21,15,14,11,15,4,-3,-5,-8,North
False,True,True,True,True,14,12,13,10,15,5,-4,-6,-9,North
False,True,True,True,True,14,16,13,12,16,5,-5,-7,-10,East
False,True,True,True,True,17,15,14,11,17,5,-6,-8,-11,East
False,True,True,True,True,13,14,15,10,16,5,-7,-9,-12,West
False,True,True,True,True,13,10,13,10,15,5,-8,-10,-13,West
False,True,True,True,True,14,12,9,11,16,5,-9,-11,-14,East
False,True,True,True,True,19,14,14,14,17,5,-10,-12,-15,East
False,True,True,True,True,16,15,18,17,18,5,-11,-13,-16,East
False,True,True,True,True,17,16,13,12,18,6,-12,-14,-17,North
False,True,True,True,True,15,12,16,13,18,7,-13,-15,-18,North
False,True,True,True,True,15,19,14,12,18,8,-14,-16,-19,North
False,True,True,True,True,13,12,10,12,17,8,-15,-17,-20,West
False,True,True,True,True,11,12,11,10,16,8,-16,-18,-21,West
False,True,True,True,True,10,11,10,8,15,8,-17,-19,-22,West
False,True,True,True,True,8,9,7,7,15,9,-18,-20,-23,North
False,True,True,True,True,8,12,7,7,15,10,-19,-21,-24,North
False,True,True,True,True,8,8,7,9,15,11,-20,-22,-25,North
False,True,True,True,True,8,6,6,5,16,11,-21,-23,-26,East
False,True,True,True,True,7,9,7,9,17,11,-22,-24,-27,East
False,True,True,True,True,11,10,9,8,18,11,-23,-25,-28,East
False,True,True,True,True,13,13,8,10,19,11,-24,-26,-29,East
False,True,True,True,True,11,12,8,10,19,12,-25,-27,-30,North
False,True,True,True,True,4,13,8,14,19,13,-26,-28,-31,North
False,True,True,True,True,8,9,6,7,19,14,-27,-29,-32,North
False,True,True,True,True,7,11,7,6,19,15,-28,-30,-33,North
False,True,True,True,True,9,10,5,6,19,16,-29,-31,166,North
False,True,True,True,True,6,7,3,6,19,17,-30,-32,165,North
False,True,True,True,True,5,8,4,5,18,17,-31,-33,164,West
False,True,True,True,True,3,11,0,7,17,17,-32,166,163,West
False,True,True,True,True,4,7,6,5,16,17,-33,165,162,West
False,True,True,False,True,2,5,-666,0,15,17,166,164,161,West
False,True,True,False,True,7,5,-666,6,15,18,165,163,160,North
False,True,True,False,True,8,5,-666,3,15,19,164,162,359,North
False,True,True,False,True,6,4,-666,1,15,18,163,161,358,South
False,True,True,False,True,7,4,-666,2,15,17,162,160,357,South
False,True,True,False,True,5,3,-666,3,14,17,161,359,356,West
False,True,True,False,True,5,2,-666,3,13,17,160,358,355,West
False,True,False,False,True,2,-666,-666,2,12,17,359,357,554,West
False,True,False,False,True,4,-666,-666,4,12,18,358,356,553,North
False,True,True,True,True,15,10,11,17,14,3,0,-2,-5,Stop
False,True,True,True,True,16,14,12,15,14,3,-1,-3,-6,Stop
False,True,True,True,True,16,18,13,11,15,3,-2,-4,-7,East
False,True,True,True,True,12,13,13,10,15,4,-3,-5,-8,North
False,True,True,True,True,13,14,12,12,15,5,-4,-6,-9,North
False,True,True,True,True,13,14,12,5,15,5,-5,-7,-10,North
False,True,True,True,True,13,13,12,14,15,5,-6,-8,-11,North
False,True,True,True,True,15,12,14,8,16,5,-7,-9,-12,East
False,True,True,True,True,16,18,16,12,17,5,-8,-10,-13,East
False,True,True,True,True,17,15,17,14,18,5,-9,-11,-14,East
False,True,True,True,True,17,13,13,8,18,6,-10,-12,-15,North
False,True,True,True,True,18,13,11,4,18,7,-11,-13,-16,North
False,True,True,True,True,15,10,11,8,18,8,-12,-14,-17,North
False,True,True,True,True,17,11,5,7,17,8,-13,-15,-18,West
False,True,True,True,True,13,11,11,7,16,8,-14,-16,-19,West
False,True,True,True,True,13,9,4,7,15,8,-15,-17,-20,West
False,True,True,True,True,10,9,11,8,15,9,-16,-18,-21,North
False,True,True,True,True,9,7,8,5,15,10,-17,-19,-22,North
False,True,True,True,True,7,7,9,5,15,11,-18,-20,-23,North
False,True,True,True,True,9,8,10,8,16,11,-19,-21,-24,East
False,True,True,True,True,8,7,9,9,17,11,-20,-22,-25,East
False,True,True,True,True,11,8,11,6,18,11,-21,-23,-26,East
False,True,True,True,True,10,8,13,6,19,11,-22,-24,-27,East
False,True,True,True,True,10,7,7,6,19,12,-23,-25,-28,North
False,True,True,True,True,8,6,10,5,19,13,-24,-26,-29,North
False,True,True,True,True,10,13,10,5,19,14,-25,-27,-30,North
False,True,True,True,True,5,8,11,6,19,15,-26,-28,-31,North
False,True,True,True,True,11,4,10,6,19,16,-27,-29,168,North
False,True,True,True,True,3,0,1,6,19,17,-28,-30,167,North
False,True,True,True,True,6,0,8,6,18,17,-29,-31,166,West
False,True,True,True,True,4,3,12,9,17,17,-30,168,365,West
False,True,True,True,True,7,0,9,5,16,17,-31,167,564,West
False,True,False,True,True,5,-666,6,3,15,17,168,166,563,West
False,True,False,True,True,1,-666,4,3,14,17,167,365,562,West
False,True,True,True,True,10,7,8,18,1,11,0,-2,-5,Stop
False,True,True,True,True,9,9,8,20,1,11,-1,-3,-6,Stop
False,True,True,True,True,8,10,3,14,2,11,-2,-4,193,East
False,True,True,True,True,10,7,6,14,3,11,-3,-5,192,East
False,True,True,True,True,9,5,6,21,4,11,-4,-6,191,East
False,True,True,True,True,9,6,3,14,5,11,-5,193,390,East
False,True,True,True,True,10,4,1,17,6,11,-6,192,389,East
False,True,True,False,True,8,7,-666,12,7,11,193,191,388,East
False,True,True,False,True,11,6,-666,17,8,11,192,390,387,East
False,True,True,False,True,10,6,-666,16,7,11,191,389,386,West
False,True,False,False,True,7,-666,-666,16,6,11,390,388,385,West
False,True,False,False,True,7,-666,-666,17,6,10,389,387,384,South
False,True,False,False,True,8,-666,-666,15,6,9,388,386,383,South
False,True,False,False,True,5,-666,-666,16,6,8,387,385,382,South
False,True,False,False,True,9,-666,-666,13,5,8,386,384,381,West
False,True,False,False,True,6,-666,-666,18,4,8,385,383,380,West
False,True,False,False,True,4,-666,-666,21,3,8,384,382,379,West
False,True,False,False,True,2,-666,-666,17,3,7,383,381,578,South
False,True,False,False,True,5,-666,-666,19,2,7,382,380,577,West
False,True,False,False,True,5,-666,-666,19,1,7,381,379,576,West
False,True,False,False,True,2,-666,-666,19,1,6,380,578,575,South
False,True,False,False,True,0,-666,-666,16,1,5,379,577,574,South
False,False,False,False,True,-666,-666,-666,16,2,5,578,576,573,East
False,False,False,False,True,-666,-666,-666,14,3,5,577,575,572,East
False,False,False,False,True,-666,-666,-666,15,4,5,576,574,571,East
False,False,False,False,True,-666,-666,-666,6,5,5,575,573,570,East
False,False,False,False,True,-666,-666,-666,9,6,5,574,572,569,East
False,False,False,False,True,-666,-666,-666,9,7,5,573,571,568,East
False,False,False,False,True,-666,-666,-666,9,8,5,572,570,567,East
False,False,False,False,True,-666,-666,-666,10,9,5,571,569,566,East
False,False,False,False,True,-666,-666,-666,4,10,5,570,568,565,East
False,False,False,False,True,-666,-666,-666,7,11,5,569,567,564,East
False,False,False,False,True,-666,-666,-666,4,12,5,568,566,563,East
False,False,False,False,True,-666,-666,-666,5,13,5,567,565,562,East
False,False,False,False,True,-666,-666,-666,6,14,5,566,564,561,East
False,False,False,False,True,-666,-666,-666,5,15,5,565,563,560,East
False,True,True,True,True,15,5,8,18,1,11,0,-2,195,Stop
False,True,True,True,True,14,5,6,15,1,11,-1,-3,394,Stop
False,True,True,True,True,11,3,5,15,2,11,-2,-4,393,East
False,True,True,True,True,9,4,7,13,3,11,-3,195,392,East
False,True,True,True,True,7,7,1,13,4,11,-4,394,391,East
False,True,True,False,True,8,0,-666,10,5,11,195,393,390,East
False,True,False,False,True,6,-666,-666,10,5,10,394,392,389,South
False,True,False,False,True,7,-666,-666,10,6,10,393,391,388,East
False,True,False,False,True,8,-666,-666,9,6,9,392,390,387,South
False,True,False,False,True,6,-666,-666,9,7,9,391,389,386,East
False,True,False,False,True,5,-666,-666,8,7,8,390,388,385,South
False,True,False,False,True,1,-666,-666,7,8,8,389,387,384,East
False,True,False,False,True,6,-666,-666,6,8,7,388,386,383,South
False,True,False,False,True,7,-666,-666,5,8,6,387,385,382,South
False,True,False,False,True,3,-666,-666,5,8,5,386,384,381,South
False,True,False,False,True,3,-666,-666,7,7,5,385,383,380,West
False,True,False,False,True,4,-666,-666,12,7,4,384,382,579,South
False,True,False,False,True,1,-666,-666,6,8,4,383,381,578,East
False,True,False,False,True,2,-666,-666,13,8,3,382,380,577,South
False,True,False,False,True,0,-666,-666,6,9,3,381,579,576,East
False,True,False,False,True,1,-666,-666,7,9,4,380,578,575,North
False,False,False,False,True,-666,-666,-666,7,9,3,579,577,574,South
False,False,False,False,True,-666,-666,-666,7,9,4,578,576,573,North
False,False,False,False,True,-666,-666,-666,6,10,4,577,575,572,East
False,False,False,False,True,-666,-666,-666,12,10,5,576,574,571,North
False,True,True,True,True,11,9,3,3,12,10,0,-2,195,Stop
False,True,True,True,True,11,9,6,1,12,10,-1,-3,194,Stop
False,True,True,True,True,12,6,5,0,12,11,-2,196,193,North
False,True,True,True,True,12,9,7,2,13,11,-3,195,192,East
False,True,True,True,False,13,7,6,-666,13,10,196,194,191,South
False,True,True,True,False,11,13,8,-666,13,9,195,193,390,South
False,True,True,True,False,12,16,2,-666,13,8,194,192,389,South
False,True,True,True,False,7,13,0,-666,13,7,193,191,388,South
False,True,True,True,False,11,17,3,-666,13,6,192,390,387,South
False,True,True,True,False,13,17,0,-666,13,5,191,389,386,South
False,True,True,False,False,12,22,-666,-666,13,4,390,388,385,South
False,True,True,False,False,13,20,-666,-666,12,4,389,387,384,West
False,True,True,False,False,9,18,-666,-666,11,4,388,386,383,West
False,True,True,False,False,11,20,-666,-666,10,4,387,385,382,West
False,True,True,False,False,6,18,-666,-666,9,4,386,384,381,West
False,True,True,False,False,5,16,-666,-666,8,4,385,383,380,West
False,True,True,False,False,6,15,-666,-666,7,4,384,382,379,West
False,True,True,False,False,4,13,-666,-666,6,4,383,381,578,West
False,True,True,False,False,2,11,-666,-666,5,4,382,380,577,West
False,True,True,False,False,4,14,-666,-666,4,4,381,379,576,West
False,True,True,False,False,0,11,-666,-666,3,4,380,578,575,West
False,True,True,False,False,1,10,-666,-666,3,5,379,577,574,North
False,False,True,False,False,-666,11,-666,-666,2,5,578,576,573,West
False,False,True,False,False,-666,4,-666,-666,2,6,577,575,572,North
False,False,True,False,False,-666,5,-666,-666,2,7,576,574,571,North
False,False,True,False,False,-666,11,-666,-666,2,8,575,573,570,North
False,True,True,True,True,11,7,10,20,1,11,0,-2,195,Stop
False,True,True,True,True,11,8,8,17,1,11,-1,-3,194,Stop
False,True,True,True,True,14,4,7,18,2,11,-2,-4,193,East
False,True,True,True,True,13,4,12,17,3,11,-3,195,192,East
False,True,True,True,True,8,4,5,11,4,11,-4,194,191,East
False,True,False,True,True,11,-666,5,14,5,11,195,193,190,East
False,True,False,True,True,10,-666,7,12,5,10,194,192,189,South
False,True,False,True,True,5,-666,7,15,5,9,193,191,188,South
False,True,False,True,True,8,-666,2,10,5,8,192,190,187,South
False,True,False,True,True,4,-666,6,9,5,7,191,189,186,South
False,True,False,True,True,6,-666,7,10,6,7,190,188,185,East
False,True,False,True,True,9,-666,3,6,7,7,189,187,184,East
False,True,False,True,True,7,-666,3,8,8,7,188,186,383,East
False,True,False,True,True,6,-666,4,6,8,6,187,185,382,South
False,True,False,True,True,11,-666,5,7,8,5,186,184,381,South
False,True,False,True,True,0,-666,7,6,7,5,185,383,380,West
False,True,False,True,True,4,-666,4,7,6,5,184,382,379,West
False,False,False,True,True,-666,-666,7,10,5,5,383,381,378,West
False,False,False,True,True,-666,-666,9,10,4,5,382,380,377,West
False,False,False,True,True,-666,-666,9,14,3,5,381,379,376,West
False,False,False,True,True,-666,-666,12,14,2,5,380,378,375,West
False,False,False,True,True,-666,-666,10,9,1,5,379,377,374,West
False,False,False,True,True,-666,-666,10,14,1,6,378,376,373,North
False,False,False,True,True,-666,-666,9,16,1,7,377,375,372,North
False,False,False,True,True,-666,-666,7,18,1,8,376,374,371,North
False,False,False,True,True,-666,-666,7,13,2,8,375,373,370,East
False,False,False,True,True,-666,-666,7,10,3,8,374,372,369,East
False,False,False,True,True,-666,-666,7,15,4,8,373,371,368,East
False,False,False,True,True,-666,-666,7,12,5,8,372,370,367,East
False,False,False,True,True,-666,-666,0,12,5,9,371,369,566,North
False,False,False,True,True,-666,-666,9,10,6,9,370,368,565,East
False,False,False,True,True,-666,-666,3,4,6,10,369,367,564,North
False,False,False,True,True,-666,-666,2,9,6,11,368,566,563,North
False,False,False,True,True,-666,-666,4,10,7,11,367,565,562,East
False,False,False,False,True,-666,-666,-666,9,8,11,566,564,561,East
False,False,False,False,True,-666,-666,-666,2,9,11,565,563,560,East
False,False,False,False,True,-666,-666,-666,5,10,11,564,562,559,East
False,False,False,False,True,-666,-666,-666,6,11,11,563,561,558,East
False,False,False,False,True,-666,-666,-666,5,11,10,562,560,557,South
False,False,False,False,True,-666,-666,-666,6,11,9,561,559,556,South
False,False,False,False,True,-666,-666,-666,5,12,9,560,558,555,East
False,True,True,True,True,12,2,5,18,1,11,0,-2,-5,Stop
False,True,True,True,True,11,7,6,18,1,11,-1,-3,194,Stop
False,True,True,True,True,12,7,4,18,2,11,-2,-4,193,East
False,True,True,True,True,12,6,3,18,3,11,-3,-5,192,East
False,True,True,True,True,10,8,3,19,4,11,-4,194,191,East
False,True,True,True,True,11,7,0,17,5,11,-5,193,190,East
False,True,True,False,True,7,5,-666,15,5,10,194,192,189,South
False,True,True,False,True,9,6,-666,13,5,9,193,191,188,South
False,True,True,False,True,5,4,-666,12,6,9,192,190,187,East
False,True,True,False,True,9,5,-666,8,7,9,191,189,386,East
False,True,True,False,True,11,4,-666,10,8,9,190,188,385,East
False,True,True,False,True,6,3,-666,9,9,9,189,187,384,East
False,True,True,False,True,7,1,-666,9,10,9,188,386,383,East
False,True,True,False,True,7,1,-666,11,10,10,187,385,382,North
False,True,False,False,True,11,-666,-666,15,10,11,386,384,381,North
False,True,False,False,True,12,-666,-666,12,10,10,385,383,380,South
False,True,False,False,True,8,-666,-666,10,10,9,384,382,379,South
False,True,False,False,True,6,-666,-666,9,10,8,383,381,378,South
False,True,False,False,True,6,-666,-666,10,9,8,382,380,377,West
False,True,False,False,True,6,-666,-666,9,9,7,381,379,376,South
False,True,False,False,True,6,-666,-666,6,9,6,380,378,575,South
False,True,False,False,True,3,-666,-666,8,9,5,379,377,574,South
False,True,False,False,True,2,-666,-666,8,9,4,378,376,573,South
False,True,False,False,True,0,-666,-666,11,9,3,377,575,572,South
False,True,False,False,True,3,-666,-666,8,9,4,376,574,571,North
False,False,False,False,True,-666,-666,-666,8,10,4,575,573,570,East
False,False,False,False,True,-666,-666,-666,8,10,3,574,572,569,South
False,False,False,False,True,-666,-666,-666,8,10,4,573,571,568,North
False,False,False,False,True,-666,-666,-666,8,10,5,572,570,567,North
False,False,False,False,True,-666,-666,-666,9,11,5,571,569,566,East
False,False,False,False,True,-666,-666,-666,7,12,5,570,568,565,East
False,False,False,False,True,-666,-666,-666,8,13,5,569,567,564,East
False,False,False,False,True,-666,-666,-666,4,14,5,568,566,563,East
False,False,False,False,True,-666,-666,-666,5,14,6,567,565,562,North
False,True,True,True,True,14,12,12,11,14,3,0,-2,-5,Stop
False,True,True,True,True,13,15,13,14,14,3,-1,-3,-6,Stop
False,True,True,True,True,13,11,13,19,14,3,-2,-4,-7,Stop
False,True,True,True,True,17,12,13,13,15,3,-3,-5,-8,East
False,True,True,True,True,16,14,16,13,15,4,-4,-6,-9,North
False,True,True,True,True,12,14,10,13,15,5,-5,-7,-10,North
False,True,True,True,True,13,11,10,12,15,5,-6,-8,-11,North
False,True,True,True,True,15,18,11,10,15,5,-7,-9,-12,North
False,True,True,True,True,14,7,15,11,15,5,-8,-10,-13,North
False,True,True,True,True,14,7,11,12,16,5,-9,-11,-14,East
False,True,True,True,True,17,19,12,15,17,5,-10,-12,-15,East
False,True,True,True,True,15,15,8,16,18,5,-11,-13,-16,East
False,True,True,True,True,18,11,10,14,18,6,-12,-14,-17,North
False,True,True,True,True,17,16,10,10,18,7,-13,-15,-18,North
False,True,True,True,True,16,9,10,9,18,8,-14,-16,-19,North
False,True,True,True,True,14,10,9,10,17,8,-15,-17,-20,West
False,True,True,True,True,13,14,8,9,16,8,-16,-18,-21,West
False,True,True,True,True,10,9,7,7,15,8,-17,-19,-22,West
False,True,True,True,True,9,8,7,7,15,9,-18,-20,-23,North
False,True,True,True,True,7,10,7,6,15,10,-19,-21,-24,North
False,True,True,True,True,0,8,8,11,15,11,-20,-22,-25,North
False,True,True,True,True,9,10,4,10,16,11,-21,-23,-26,East
False,True,True,True,True,11,12,2,9,17,11,-22,-24,-27,East
False,True,True,True,True,9,11,3,11,18,11,-23,-25,-28,East
False,True,True,True,True,10,13,12,12,19,11,-24,-26,-29,East
False,True,True,True,True,8,14,6,9,19,12,-25,-27,-30,North
False,True,True,True,True,6,12,4,13,19,13,-26,-28,-31,North
False,True,True,True,True,3,11,5,7,19,14,-27,-29,168,North
False,True,True,True,True,7,9,3,6,19,15,-28,-30,167,North
False,True,True,True,True,6,8,6,0,19,16,-29,-31,366,North
False,True,True,True,True,6,10,5,3,19,17,-30,168,365,North
False,True,True,True,True,6,9,6,1,18,17,-31,167,364,West
False,True,True,True,False,2,6,3,-666,17,17,168,366,363,West
False,True,True,True,False,1,7,2,-666,16,17,167,365,362,West
False,False,True,True,False,-666,5,0,-666,15,17,366,364,561,West
False,False,True,True,False,-666,7,4,-666,14,17,365,363,560,West
False,False,True,True,False,-666,9,1,-666,14,16,364,362,559,South
False,False,True,True,False,-666,11,2,-666,14,15,363,561,558,South
False,False,True,True,False,-666,11,2,-666,15,15,362,560,557,East
False,False,True,False,False,-666,12,-666,-666,16,15,561,559,556,East
False,False,True,False,False,-666,11,-666,-666,15,15,560,558,555,West
False,False,True,False,False,-666,14,-666,-666,14,15,559,557,554,West
False,False,True,False,False,-666,11,-666,-666,14,16,558,556,553,North
False,False,True,False,False,-666,8,-666,-666,13,16,557,555,552,West
False,False,True,False,False,-666,11,-666,-666,13,17,556,554,551,North
False,False,True,False,False,-666,8,-666,-666,12,17,555,553,550,West
False,False,True,False,False,-666,6,-666,-666,12,18,554,552,549,North
False,False,True,False,False,-666,6,-666,-666,12,19,553,551,548,North
False,False,True,False,False,-666,8,-666,-666,12,20,552,550,547,North
False,False,True,False,False,-666,5,-666,-666,11,20,551,549,546,West
False,False,True,False,False,-666,4,-666,-666,10,20,550,548,545,West
False,False,True,False,False,-666,4,-666,-666,9,20,549,547,544,West
False,False,True,False,False,-666,4,-666,-666,9,21,548,546,543,North
False,True,True,True,True,12,9,5,5,12,10,0,-2,195,Stop
False,True,True,True,True,11,8,7,10,12,10,-1,-3,194,Stop
False,True,True,True,True,12,4,4,2,12,11,-2,196,193,North
False,True,True,True,True,15,7,5,2,12,12,-3,195,192,North
False,True,True,True,False,13,11,3,-666,12,13,196,194,191,North
False,True,True,True,False,13,14,5,-666,13,13,195,193,190,East
False,True,True,True,False,12,10,6,-666,13,12,194,192,189,South
False,True,True,True,False,9,8,1,-666,13,11,193,191,388,South
False,True,True,True,False,1,8,3,-666,13,10,192,190,387,South
False,True,True,True,False,10,6,1,-666,13,9,191,189,386,South
False,True,True,True,False,9,8,2,-666,13,8,190,388,385,South
False,True,True,True,False,9,9,1,-666,12,8,189,387,384,West
False,True,True,False,False,5,8,-666,-666,12,9,388,386,583,North
False,True,True,False,False,4,5,-666,-666,11,9,387,385,582,West
False,True,True,True,True,12,4,7,14,1,11,0,-2,-5,Stop
False,True,True,True,True,10,0,7,16,1,11,-1,-3,194,Stop
False,True,True,True,True,6,6,8,19,2,11,-2,-4,193,East
False,True,True,True,True,6,3,5,14,3,11,-3,-5,392,East
False,True,True,True,True,8,5,5,18,4,11,-4,194,391,East
False,True,True,True,True,7,2,8,14,5,11,-5,193,390,East
False,True,False,True,True,5,-666,4,12,5,10,194,392,389,South
False,True,False,True,True,4,-666,0,11,6,10,193,391,388,East
False,True,False,False,True,10,-666,-666,12,6,11,392,390,387,North
False,True,False,False,True,5,-666,-666,12,7,11,391,389,386,East
False,True,False,False,True,1,-666,-666,10,8,11,390,388,385,East
False,True,False,False,True,12,-666,-666,7,9,11,389,387,384,East
False,True,False,False,True,14,-666,-666,9,10,11,388,386,383,East
False,True,False,False,True,9,-666,-666,10,10,10,387,385,382,South
False,True,False,False,True,9,-666,-666,10,10,9,386,384,381,South
False,True,False,False,True,10,-666,-666,6,11,9,385,383,380,East
False,True,False,False,True,11,-666,-666,6,12,9,384,382,379,East
False,True,False,False,True,18,-666,-666,9,13,9,383,381,378,East
False,True,False,False,True,17,-666,-666,5,14,9,382,380,377,East
False,True,False,False,True,17,-666,-666,1,15,9,381,379,576,East
False,True,False,False,True,14,-666,-666,2,16,9,380,378,575,East
False,True,False,False,True,18,-666,-666,3,16,8,379,377,574,South
False,True,False,False,True,16,-666,-666,2,17,8,378,576,573,East
False,True,False,False,True,18,-666,-666,1,18,8,377,575,572,East
False,True,False,False,False,17,-666,-666,-666,18,7,576,574,571,South
False,True,False,False,False,15,-666,-666,-666,18,6,575,573,570,South
False,True,False,False,False,15,-666,-666,-666,18,5,574,572,569,South
False,True,False,False,False,15,-666,-666,-666,17,5,573,571,568,West
False,True,False,False,False,10,-666,-666,-666,16,5,572,570,567,West
False,True,False,False,False,9,-666,-666,-666,15,5,571,569,566,West
False,True,False,False,False,6,-666,-666,-666,14,5,570,568,565,West
False,True,False,False,False,7,-666,-666,-666,13,5,569,567,564,West
False,True,False,False,False,8,-666,-666,-666,12,5,568,566,563,West
False,True,True,True,True,11,8,11,13,1,11,0,-2,-5,Stop
False,True,True,True,True,10,10,6,17,1,11,-1,-3,194,Stop
False,True,True,True,True,11,9,7,14,2,11,-2,-4,193,East
False,True,True,True,True,6,7,3,12,3,11,-3,-5,192,East
False,True,True,True,True,6,7,1,11,4,11,-4,194,191,East
False,True,True,True,True,8,6,2,9,5,11,-5,193,390,East
False,True,True,False,True,10,4,-666,9,6,11,194,192,389,East
False,True,True,False,True,9,2,-666,10,6,10,193,191,388,South
False,True,True,False,True,10,6,-666,7,6,9,192,390,387,South
False,True,True,False,True,12,0,-666,4,7,9,191,389,386,East
False,True,False,False,True,11,-666,-666,4,7,8,390,388,385,South
False,True,False,False,True,13,-666,-666,3,8,8,389,387,384,East
False,True,False,False,True,9,-666,-666,6,8,7,388,386,383,South
False,True,False,False,True,10,-666,-666,6,9,7,387,385,382,East
False,True,False,False,True,13,-666,-666,3,10,7,386,384,381,East
False,True,False,False,True,12,-666,-666,4,10,8,385,383,580,North
False,True,False,False,True,14,-666,-666,6,10,9,384,382,579,North
False,True,False,False,True,16,-666,-666,4,10,10,383,381,578,North
False,True,False,False,True,14,-666,-666,3,11,10,382,580,577,East
False,True,False,False,True,23,-666,-666,3,11,11,381,579,576,North
False,True,False,False,False,19,-666,-666,-666,12,11,580,578,575,East
False,True,False,False,False,16,-666,-666,-666,13,11,579,577,574,East
False,True,False,False,False,19,-666,-666,-666,12,11,578,576,573,West
False,True,False,False,False,22,-666,-666,-666,11,11,577,575,572,West
False,True,False,False,False,14,-666,-666,-666,11,10,576,574,571,South
False,True,False,False,False,13,-666,-666,-666,10,10,575,573,570,West
False,True,False,False,False,12,-666,-666,-666,10,9,574,572,569,South
False,True,False,False,False,12,-666,-666,-666,10,8,573,571,568,South
False,True,False,False,False,10,-666,-666,-666,10,7,572,570,567,South
False,True,False,False,False,7,-666,-666,-666,10,6,571,569,566,South
False,True,False,False,False,5,-666,-666,-666,9,6,570,568,565,West
False,True,True,True,True,11,6,8,19,1,11,0,-2,-5,Stop
False,True,True,True,True,9,8,7,19,1,11,-1,-3,-6,Stop
False,True,True,True,True,11,4,6,18,2,11,-2,-4,-7,East
False,True,True,True,True,9,3,9,19,3,11,-3,-5,-8,East
False,True,True,True,True,8,3,3,14,4,11,-4,-6,191,East
False,True,True,True,True,8,1,7,16,5,11,-5,-7,190,East
False,True,True,True,True,9,1,7,15,6,11,-6,-8,189,East
False,True,True,True,True,9,3,5,14,6,10,-7,191,188,South
False,True,True,True,True,7,0,7,16,5,10,-8,190,187,West
False,True,False,True,True,6,-666,7,14,5,9,191,189,386,South
False,True,False,True,True,9,-666,4,11,6,9,190,188,385,East
False,True,False,True,True,10,-666,2,11,7,9,189,187,384,East
False,True,False,True,True,8,-666,1,9,8,9,188,386,383,East
False,True,False,True,True,10,-666,0,7,9,9,187,385,582,East
False,True,False,False,True,11,-666,-666,7,10,9,386,384,581,East
False,True,False,False,True,9,-666,-666,6,11,9,385,383,580,East
False,True,False,False,True,14,-666,-666,3,12,9,384,582,579,East
False,True,False,False,True,17,-666,-666,0,13,9,383,581,578,East
False,True,False,False,False,17,-666,-666,-666,14,9,582,580,577,East
False,True,False,False,False,19,-666,-666,-666,15,9,581,579,576,East
False,True,False,False,False,17,-666,-666,-666,14,9,580,578,575,West
False,True,False,False,False,15,-666,-666,-666,13,9,579,577,574,West
False,True,False,False,False,12,-666,-666,-666,12,9,578,576,573,West
False,True,False,False,False,12,-666,-666,-666,11,9,577,575,572,West
False,True,False,False,False,10,-666,-666,-666,10,9,576,574,571,West
False,True,False,False,False,13,-666,-666,-666,9,9,575,573,570,West
False,True,False,False,False,10,-666,-666,-666,9,8,574,572,569,South
False,True,False,False,False,11,-666,-666,-666,9,7,573,571,568,South
False,True,False,False,False,10,-666,-666,-666,8,7,572,570,567,West
False,True,False,False,False,6,-666,-666,-666,8,6,571,569,566,South
False,True,False,False,False,11,-666,-666,-666,8,5,570,568,565,South
False,True,False,False,False,6,-666,-666,-666,7,5,569,567,564,West
