@relation 'training_keyboard-weka.filters.unsupervised.attribute.Remove-R1,12-14-weka.filters.supervised.instance.Resample-B1.0-S1-Z100.0'

@attribute livingLavidaLocaAzul {True,False}
@attribute livingLavidaLocaNaranja {True,False}
@attribute livingLavidaLocaCian {True,False}
@attribute livingLavidaLocaMandarina {True,False}
@attribute lightYearsAzul numeric
@attribute lightYearsNaranja numeric
@attribute lightYearsCian numeric
@attribute lightYearsMandarina numeric
@attribute patrullaX numeric
@attribute patrullaY numeric
@attribute fate {North,West,East,South,Stop}

@data
True,True,True,True,9,1,7,15,6,11,East
True,True,True,True,12,9,5,5,12,10,Stop
True,True,True,True,12,4,7,14,1,11,Stop
True,True,True,True,10,4,1,17,6,11,East
True,True,True,True,13,14,15,10,16,5,West
True,True,True,True,13,14,12,12,15,5,North
True,False,False,False,6,-666,-666,-666,8,6,South
True,True,True,True,9,8,7,7,15,9,North
False,False,False,True,-666,-666,-666,8,10,3,South
True,True,True,True,6,10,5,3,19,17,North
False,False,False,True,-666,-666,-666,9,11,5,East
True,False,False,True,16,-666,-666,4,10,10,North
True,True,True,True,10,4,4,11,4,11,East
False,True,True,False,-666,5,0,-666,15,17,West
True,True,True,True,10,7,8,18,1,11,Stop
True,False,False,False,6,-666,-666,-666,14,5,West
True,False,False,True,8,-666,-666,10,10,9,South
True,True,True,True,12,9,5,5,12,10,Stop
False,False,False,True,-666,-666,-666,8,10,4,East
True,True,False,False,5,2,-666,-666,7,4,West
False,True,False,False,-666,5,-666,-666,11,20,West
True,True,True,True,11,9,6,1,12,10,Stop
False,False,True,True,-666,-666,7,13,2,8,East
True,True,True,False,15,11,6,-666,16,9,South
True,False,True,True,5,-666,6,3,15,17,West
True,True,True,True,14,14,19,16,14,3,Stop
True,False,False,True,9,-666,-666,2,11,9,South
True,False,False,True,11,-666,-666,6,12,9,East
False,False,True,True,-666,-666,9,10,6,9,East
True,True,True,True,14,7,15,11,15,5,North
True,True,True,True,5,8,11,6,19,15,North
False,False,True,True,-666,-666,7,10,5,5,West
True,True,False,True,6,4,-666,1,15,18,South
True,True,True,True,12,13,13,10,15,4,North
True,False,False,False,1,-666,-666,-666,6,4,West
False,False,True,True,-666,-666,9,14,3,5,West
True,True,True,True,14,14,19,16,14,3,Stop
True,True,True,True,9,8,7,19,1,11,Stop
False,True,True,False,-666,5,0,-666,15,17,West
True,False,False,True,11,-666,-666,4,12,9,East
True,False,False,False,19,-666,-666,-666,12,11,East
True,False,False,False,8,-666,-666,-666,12,5,West
True,True,False,True,11,6,-666,17,8,11,East
True,True,True,True,17,11,5,7,17,8,West
False,True,False,False,-666,4,-666,-666,9,21,North
True,True,True,True,8,14,6,9,19,12,North
True,False,True,True,6,-666,7,14,5,9,South
True,False,True,True,1,-666,4,3,14,17,West
True,True,True,True,9,10,5,6,19,16,North
True,True,True,True,12,9,5,5,12,10,Stop
True,False,False,True,5,-666,-666,16,6,8,South
True,True,False,True,8,7,-666,12,7,11,East
True,True,True,True,13,15,13,14,14,3,Stop
True,False,False,True,2,-666,-666,19,1,6,South
True,True,True,True,12,2,5,18,1,11,Stop
True,True,True,True,11,7,6,18,1,11,Stop
True,True,True,True,10,9,11,8,15,9,North
True,True,True,True,14,10,9,10,17,8,West
True,True,True,True,13,12,10,12,17,8,West
True,True,True,True,11,10,7,16,1,11,Stop
True,True,True,False,10,6,1,-666,13,9,South
True,False,True,True,10,-666,3,8,5,10,South
True,True,True,True,11,5,4,5,12,10,Stop
True,True,True,False,13,17,0,-666,13,5,South
True,True,True,True,11,9,6,1,12,10,Stop
False,True,True,False,-666,5,0,-666,15,17,West
False,False,False,True,-666,-666,-666,7,9,3,South
True,True,True,True,9,3,5,14,6,10,South
True,False,False,True,8,-666,-666,15,6,9,South
True,False,False,True,7,-666,-666,10,6,10,East
True,True,False,True,9,2,-666,10,6,10,South
False,True,False,False,-666,11,-666,-666,14,16,North
True,True,False,False,9,18,-666,-666,11,4,West
True,True,False,False,5,16,-666,-666,8,4,West
True,True,False,True,6,4,-666,1,15,18,South
True,False,False,True,12,-666,-666,4,10,8,North
True,True,False,False,10,17,-666,-666,15,4,West
False,False,False,True,-666,-666,-666,8,10,4,North
True,False,False,True,2,-666,-666,8,9,4,South
True,True,True,False,17,9,7,-666,16,10,South
True,False,True,True,10,-666,7,12,5,10,South
True,True,True,True,10,8,7,8,12,10,Stop
False,False,False,True,-666,-666,-666,5,10,11,East
True,True,True,True,10,8,7,8,12,10,Stop
True,True,True,True,17,7,5,4,12,12,North
True,True,True,False,13,7,6,-666,13,10,South
True,True,False,True,10,6,-666,16,7,11,West
True,False,False,True,6,-666,-666,6,8,7,South
True,True,True,True,10,8,7,8,12,10,Stop
True,True,True,True,10,7,8,18,1,11,Stop
True,False,False,True,14,-666,-666,9,10,11,East
True,False,False,True,2,-666,-666,17,3,7,South
True,True,True,True,12,2,5,18,1,11,Stop
True,True,True,True,13,13,8,10,19,11,East
True,True,True,True,8,3,3,14,4,11,East
True,True,True,False,11,13,8,-666,13,9,South
True,True,True,True,11,8,11,13,1,11,Stop
False,False,True,True,-666,-666,4,10,7,11,East
True,True,True,True,10,10,6,17,1,11,Stop
True,True,True,True,12,4,7,14,1,11,Stop
True,False,False,True,2,-666,-666,19,1,6,South
True,True,True,True,11,12,11,10,16,8,West
True,False,False,False,15,-666,-666,-666,18,6,South
True,True,True,True,15,18,11,10,15,5,North
True,False,False,False,6,-666,-666,-666,14,5,West
True,True,True,True,11,8,11,13,1,11,Stop
True,True,False,True,8,5,-666,3,15,19,North
False,False,False,True,-666,-666,-666,4,10,5,East
True,True,True,True,14,12,12,11,14,3,Stop
True,True,True,True,11,12,8,10,19,12,North
True,False,False,True,2,-666,-666,8,9,4,South
True,True,True,False,13,7,6,-666,13,10,South
True,False,False,True,2,-666,-666,13,8,3,South
True,True,True,True,8,8,7,9,15,11,North
True,True,True,True,9,11,3,11,18,11,East
True,False,False,False,19,-666,-666,-666,12,11,West
True,True,True,True,9,1,7,15,6,11,East
True,True,True,True,12,2,5,18,1,11,Stop
True,True,True,True,4,13,8,14,19,13,North
True,True,True,True,12,2,5,18,1,11,Stop
True,False,True,True,8,-666,2,10,5,8,South
True,True,True,True,14,14,19,16,14,3,Stop
True,False,False,True,9,-666,-666,2,11,9,South
True,False,False,True,11,-666,-666,4,7,8,South
True,True,True,True,8,10,3,14,2,11,East
True,True,True,True,14,5,6,15,1,11,Stop
True,True,True,True,10,11,10,8,15,8,West
True,True,True,True,7,0,7,16,5,10,West
True,True,True,True,7,9,3,6,19,15,North
True,False,False,False,19,-666,-666,-666,15,9,East
True,True,True,True,14,5,6,15,1,11,Stop
True,True,True,True,11,8,7,10,12,10,Stop
True,True,True,True,10,8,7,8,12,10,Stop
True,True,False,True,10,6,-666,16,7,11,West
True,True,True,True,12,4,7,14,1,11,Stop
True,True,True,False,11,7,5,-666,15,7,South
True,True,True,True,9,1,7,15,6,11,East
True,True,True,True,10,8,7,8,12,10,Stop
True,False,False,True,6,-666,-666,6,9,6,South
True,True,True,True,11,8,11,6,18,11,East
True,True,True,True,17,15,14,11,17,5,East
True,True,True,True,10,0,7,16,1,11,Stop
True,False,False,False,1,-666,-666,-666,6,4,West
True,True,False,False,9,18,-666,-666,11,4,West
True,False,False,False,10,-666,-666,-666,9,8,South
True,True,True,True,16,14,12,15,14,3,Stop
True,False,False,False,17,-666,-666,-666,14,9,East
True,False,False,False,13,-666,-666,-666,10,10,West
False,True,True,False,-666,11,2,-666,15,15,East
True,False,True,True,0,-666,7,6,7,5,West
True,False,False,True,6,-666,-666,10,5,10,South
True,True,True,True,11,7,10,20,1,11,Stop
True,False,False,True,10,-666,-666,6,9,7,East
True,False,False,True,12,-666,-666,7,9,11,East
True,True,True,True,14,5,6,15,1,11,Stop
True,True,True,True,0,8,8,11,15,11,North
True,True,False,False,8,8,-666,-666,11,4,West
False,False,False,True,-666,-666,-666,4,14,5,East
True,True,True,True,14,5,6,15,1,11,Stop
True,False,False,True,8,-666,-666,9,6,9,South
True,True,True,False,1,8,3,-666,13,10,South
True,True,True,True,9,8,7,19,1,11,Stop
False,False,False,True,-666,-666,-666,8,10,5,North
True,False,False,True,7,-666,-666,7,10,11,East
True,False,False,True,12,-666,-666,12,10,10,South
True,True,True,True,11,7,10,20,1,11,Stop
True,True,True,True,15,10,11,17,14,3,Stop
True,True,True,True,10,9,11,8,15,9,North
True,True,True,True,11,10,9,8,18,11,East
True,True,True,True,11,9,3,3,12,10,Stop
True,False,False,True,9,-666,-666,10,10,9,South
True,False,False,False,7,-666,-666,-666,13,5,West
True,False,False,True,6,-666,-666,9,10,8,South
True,True,False,True,9,2,-666,10,6,10,South
True,False,False,True,3,-666,-666,5,8,5,South
True,True,True,True,15,10,11,17,14,3,Stop
True,True,True,True,4,7,6,5,16,17,West
True,True,True,True,6,8,6,0,19,16,North
False,True,False,False,-666,11,-666,-666,13,17,North
True,True,True,True,17,11,5,7,17,8,West
True,False,True,True,5,-666,6,3,15,17,West
True,True,True,True,9,10,5,6,19,16,North
True,False,False,False,6,-666,-666,-666,14,5,West
True,False,False,True,11,-666,-666,4,7,8,South
True,False,False,True,9,-666,-666,9,6,11,North
False,True,True,False,-666,11,2,-666,15,15,East
True,True,True,True,6,9,6,1,18,17,West
True,True,True,True,7,10,7,6,15,10,North
False,False,False,True,-666,-666,-666,7,11,5,East
True,False,True,True,6,-666,7,14,5,9,South
True,True,True,True,9,8,7,19,1,11,Stop
False,False,False,True,-666,-666,-666,8,10,3,South
True,True,True,True,13,6,5,6,12,10,Stop
True,False,False,True,4,-666,-666,21,3,8,West
True,False,False,True,2,-666,-666,8,9,4,South
False,False,False,True,-666,-666,-666,8,10,3,South
True,True,True,True,10,7,9,18,1,11,Stop
False,False,False,True,-666,-666,-666,7,9,3,South
True,True,True,True,13,14,12,12,15,5,North
True,True,False,True,2,5,-666,0,15,17,West
True,True,True,True,14,12,12,11,14,3,Stop
True,False,False,False,11,-666,-666,-666,9,7,South
True,True,True,True,10,8,7,8,12,10,Stop
True,False,True,True,4,-666,6,9,5,7,South
True,True,True,True,11,4,6,18,2,11,East
True,True,True,True,10,8,7,8,12,10,Stop
True,False,True,True,0,-666,7,6,7,5,West
True,False,False,False,19,-666,-666,-666,12,11,East
True,True,True,True,13,15,13,14,14,3,Stop
True,False,False,False,12,-666,-666,-666,12,9,West
True,False,False,True,2,-666,-666,2,12,17,West
True,False,False,True,10,-666,-666,6,11,9,East
True,True,True,True,12,4,4,2,12,11,North
True,False,True,True,0,-666,7,6,7,5,West
True,False,False,True,11,-666,-666,4,12,9,East
True,True,True,True,15,7,5,2,12,12,North
True,True,True,True,10,7,7,6,19,12,North
True,True,True,True,8,14,6,9,19,12,North
False,False,False,True,-666,-666,-666,5,15,5,East
True,True,True,True,11,9,7,14,2,11,East
True,False,False,True,4,-666,-666,4,12,18,North
True,True,True,True,11,6,8,19,1,11,Stop
True,True,True,True,9,0,1,11,5,11,East
True,True,True,False,19,13,11,-666,16,12,South
True,True,True,True,18,12,12,16,14,3,Stop
False,False,False,True,-666,-666,-666,5,10,11,East
True,True,True,True,9,3,5,14,6,10,South
False,False,False,True,-666,-666,-666,6,11,9,South
True,True,True,True,10,4,4,11,4,11,East
True,True,True,True,11,4,6,18,2,11,East
True,True,True,True,10,11,10,8,15,8,West
True,True,True,True,7,11,7,6,19,15,North
True,True,True,True,11,9,6,1,12,10,Stop
True,False,False,True,6,-666,-666,10,5,10,South
True,False,False,False,7,-666,-666,-666,13,5,West
True,True,True,True,11,7,6,18,1,11,Stop
True,False,False,True,9,-666,-666,6,11,9,East
True,True,True,True,9,5,6,21,4,11,East
True,True,True,False,12,10,6,-666,13,12,South
True,True,True,True,11,6,8,19,1,11,Stop
True,True,True,True,11,9,3,3,12,10,Stop
True,True,True,True,3,11,5,7,19,14,North
True,True,True,True,11,4,10,6,19,16,North
True,False,True,True,7,-666,3,8,8,7,East
True,True,True,True,12,2,5,18,1,11,Stop
True,True,True,True,6,7,3,6,19,17,North
True,False,False,True,6,-666,-666,9,9,7,South
True,False,False,False,19,-666,-666,-666,12,11,West
True,True,True,True,12,2,5,18,1,11,Stop
True,True,False,True,8,7,-666,12,7,11,East
False,True,False,False,-666,11,-666,-666,14,16,North
True,True,True,True,6,6,8,19,2,11,East
True,True,True,True,12,9,7,2,13,11,East
True,True,True,True,14,12,12,11,14,3,Stop
True,True,True,True,11,7,6,18,1,11,Stop
True,True,True,True,13,11,13,19,14,3,Stop
True,False,True,True,11,-666,5,7,8,5,South
False,False,True,True,-666,-666,7,13,2,8,East
True,True,True,True,11,7,6,18,1,11,Stop
True,True,True,True,9,3,9,19,3,11,East
True,False,False,True,6,-666,-666,9,10,8,South
True,True,True,True,7,0,7,16,5,10,West
True,True,True,True,10,9,7,7,15,8,West
True,True,True,False,13,7,6,-666,13,10,South
True,True,True,True,15,10,11,17,14,3,Stop
True,True,True,True,12,9,5,5,12,10,Stop
True,True,True,True,13,14,12,12,15,5,North
True,False,False,True,8,-666,-666,10,10,9,South
True,True,True,True,15,18,11,10,15,5,North
True,True,True,True,11,10,9,8,18,11,East
True,True,True,True,14,16,13,12,16,5,East
False,False,False,True,-666,-666,-666,7,9,4,North
False,True,False,False,-666,8,-666,-666,12,17,West
True,True,True,True,10,8,3,19,4,11,East
True,True,False,True,9,5,-666,8,7,9,East
True,True,True,True,15,5,8,18,1,11,Stop
True,True,True,False,13,7,6,-666,13,10,South
True,False,False,True,7,-666,-666,17,6,10,South
False,False,False,True,-666,-666,-666,8,10,4,North
True,False,True,True,9,-666,4,11,6,9,East
False,False,False,True,-666,-666,-666,14,3,5,East
True,True,True,True,14,16,13,12,16,5,East
False,False,True,True,-666,-666,9,14,3,5,West
False,False,False,True,-666,-666,-666,7,9,4,North
True,True,True,True,16,9,10,9,18,8,North
True,False,False,True,9,-666,-666,6,11,9,East
True,True,True,True,16,9,10,9,18,8,North
True,True,True,True,0,8,8,11,15,11,North
True,True,True,False,9,8,2,-666,13,8,South
True,False,False,True,12,-666,-666,4,10,8,North
True,True,True,True,11,10,7,16,1,11,Stop
True,False,False,False,22,-666,-666,-666,11,11,West
True,True,True,True,15,7,5,2,12,12,North
True,True,True,True,13,14,12,5,15,5,North
True,False,False,True,10,-666,-666,6,9,7,East
True,True,True,False,1,8,3,-666,13,10,South
False,True,True,False,-666,5,0,-666,15,17,West
False,False,False,True,-666,-666,-666,8,10,4,East
True,True,False,True,11,4,-666,10,8,9,East
True,False,True,True,5,-666,6,3,15,17,West
True,True,False,False,5,8,-666,-666,12,9,North
False,True,False,False,-666,8,-666,-666,12,17,West
True,False,False,False,11,-666,-666,-666,9,7,South
True,True,False,True,8,5,-666,3,15,19,North
True,True,True,True,15,15,8,16,18,5,East
True,True,True,True,12,1,6,16,2,11,East
True,True,True,False,12,10,6,-666,13,12,South
True,True,False,True,7,4,-666,2,15,17,South
True,True,True,True,9,8,7,19,1,11,Stop
True,True,True,True,14,14,19,16,14,3,Stop
True,True,True,True,14,5,6,15,1,11,Stop
True,False,False,True,14,-666,-666,9,10,11,East
True,False,False,True,9,-666,-666,6,11,9,East
True,True,False,True,5,2,-666,3,13,17,West
True,True,True,True,11,9,6,1,12,10,Stop
True,True,True,True,10,8,7,8,12,10,Stop
True,False,False,False,13,-666,-666,-666,9,9,West
True,True,True,True,10,9,7,7,15,8,West
True,True,False,True,11,4,-666,10,8,9,East
True,False,False,False,10,-666,-666,-666,9,8,South
True,True,True,True,8,14,6,9,19,12,North
True,True,True,False,11,17,3,-666,13,6,South
True,True,True,False,12,10,6,-666,13,12,South
True,False,True,True,6,-666,4,6,8,6,South
False,False,True,True,-666,-666,3,4,6,10,North
True,True,True,True,10,4,1,17,6,11,East
True,True,True,True,14,4,7,18,2,11,East
True,False,False,True,9,-666,-666,2,11,9,South
True,False,False,True,11,-666,-666,4,7,8,South
True,False,False,True,1,-666,-666,7,8,8,East
True,True,True,True,13,10,13,10,15,5,West
True,False,False,False,16,-666,-666,-666,13,11,East
False,False,False,True,-666,-666,-666,15,4,5,East
True,False,False,False,7,-666,-666,-666,10,6,South
True,True,True,True,7,7,9,5,15,11,North
False,True,False,False,-666,4,-666,-666,10,20,West
True,True,True,True,17,7,5,4,12,12,North
True,True,True,False,13,14,4,-666,16,5,North
True,False,False,False,9,-666,-666,-666,15,5,West
True,True,True,True,13,10,13,10,15,5,West
True,True,True,True,10,4,4,11,4,11,East
True,True,True,True,15,10,11,17,14,3,Stop
True,True,False,True,7,1,-666,11,10,10,North
True,True,True,False,12,16,2,-666,13,8,South
True,True,True,True,15,5,8,18,1,11,Stop
True,True,False,True,6,4,-666,1,15,18,South
True,True,True,True,6,9,6,1,18,17,West
True,False,False,False,22,-666,-666,-666,11,11,West
True,True,True,True,13,14,12,5,15,5,North
True,True,True,True,10,8,7,8,12,10,Stop
True,False,False,True,5,-666,-666,19,1,7,West
True,True,True,False,11,17,3,-666,13,6,South
True,True,False,False,4,5,-666,-666,11,9,West
True,True,True,True,11,9,3,3,12,10,Stop
True,True,True,True,12,1,6,16,2,11,East
True,True,True,True,7,7,9,5,15,11,North
True,False,False,True,4,-666,-666,4,12,18,North
True,True,True,True,11,7,10,20,1,11,Stop
True,True,True,False,4,15,2,-666,15,6,South
True,True,True,True,15,7,5,2,12,12,North
True,True,True,False,11,11,4,-666,16,8,South
True,True,True,True,14,14,19,16,14,3,Stop
True,True,True,True,9,8,7,7,15,9,North
True,True,False,True,2,5,-666,0,15,17,West
True,False,False,True,10,-666,-666,6,11,9,East
True,True,True,True,11,9,6,1,12,10,Stop
True,True,True,True,15,10,11,17,14,3,Stop
True,True,True,True,10,0,7,16,1,11,Stop
True,False,False,True,4,-666,-666,21,3,8,West
True,False,False,True,9,-666,-666,10,10,10,South
True,False,False,False,11,-666,-666,-666,9,7,South
True,False,False,True,10,-666,-666,12,6,11,North
True,True,True,True,11,8,11,13,1,11,Stop
True,True,True,True,9,9,8,20,1,11,Stop
False,False,False,True,-666,-666,-666,4,12,5,East
True,False,False,False,10,-666,-666,-666,10,9,West
True,True,False,True,11,4,-666,10,8,9,East
True,True,True,True,9,11,3,11,18,11,East
True,False,False,True,9,-666,-666,2,11,9,South
True,True,True,False,11,11,4,-666,16,8,South
True,False,True,True,4,-666,6,9,5,7,South
True,False,False,True,12,-666,-666,12,10,10,South
True,True,True,True,14,4,7,18,2,11,East
True,True,True,True,7,7,1,13,4,11,East
True,True,False,False,14,16,-666,-666,17,4,South
False,True,True,False,-666,7,4,-666,14,17,West
False,False,True,True,-666,-666,3,4,6,10,North
False,False,False,True,-666,-666,-666,5,13,5,East
True,True,True,True,14,10,9,10,17,8,West
True,True,True,True,11,8,11,13,1,11,Stop
True,True,True,False,10,6,1,-666,13,9,South
True,True,True,True,14,5,6,15,1,11,Stop
False,False,False,True,-666,-666,-666,14,3,5,East
True,True,True,True,9,8,7,19,1,11,Stop
True,True,True,False,4,15,2,-666,15,6,South
True,True,True,True,9,8,7,19,1,11,Stop
True,True,True,True,7,10,7,6,15,10,North
True,False,False,False,7,-666,-666,-666,13,5,West
True,False,False,False,10,-666,-666,-666,9,8,South
True,True,True,True,11,12,8,10,19,12,North
True,False,False,True,14,-666,-666,3,12,9,East
True,True,True,True,12,6,5,0,12,11,North
True,False,False,True,6,-666,-666,10,9,8,West
True,True,False,False,4,13,-666,-666,6,4,West
True,True,True,True,18,13,11,4,18,7,North
True,True,True,False,12,10,6,-666,13,12,South
True,False,False,True,17,-666,-666,1,15,9,East
True,False,False,True,9,-666,-666,10,10,10,South
True,True,True,True,12,4,7,14,1,11,Stop
True,False,False,True,12,-666,-666,4,10,8,North
True,True,True,True,14,5,6,15,1,11,Stop
True,True,True,True,17,15,14,11,17,5,East
True,True,True,True,0,8,8,11,15,11,North
True,True,True,True,11,10,7,16,1,11,Stop
True,True,True,True,11,9,3,3,12,10,Stop
True,False,False,True,18,-666,-666,1,18,8,East
True,True,False,False,6,18,-666,-666,9,4,West
True,True,False,True,6,3,-666,9,9,9,East
True,True,True,True,9,9,8,20,1,11,Stop
True,True,True,True,10,9,11,8,15,9,North
True,True,True,False,10,6,1,-666,13,9,South
True,True,True,True,10,8,7,8,12,10,Stop
True,True,False,False,4,2,-666,-666,10,4,West
True,True,True,True,7,7,1,13,4,11,East
True,False,False,False,7,-666,-666,-666,10,6,South
True,True,True,True,3,0,1,6,19,17,North
True,True,True,True,10,8,7,8,12,10,Stop
False,False,True,True,-666,-666,7,13,2,8,East
True,True,True,True,12,7,4,18,2,11,East
True,True,True,True,10,8,7,8,12,10,Stop
True,False,False,True,2,-666,-666,2,12,17,West
True,False,False,True,5,-666,-666,19,2,7,West
True,True,True,True,15,12,14,8,16,5,East
True,False,False,False,17,-666,-666,-666,14,9,East
True,True,False,False,10,17,-666,-666,15,4,West
True,False,True,True,6,-666,7,14,5,9,South
True,True,True,True,15,5,8,18,1,11,Stop
True,True,False,True,7,1,-666,11,10,10,North
True,True,False,True,9,6,-666,13,5,9,South
True,False,False,False,13,-666,-666,-666,9,9,West
True,True,False,False,14,16,-666,-666,17,4,South
True,True,False,True,8,5,-666,3,15,19,North
True,False,False,False,10,-666,-666,-666,10,7,South
True,False,False,True,3,-666,-666,5,8,5,South
True,False,True,True,10,-666,0,7,9,9,East
False,False,False,True,-666,-666,-666,15,4,5,East
True,True,True,True,11,9,6,1,12,10,Stop
True,True,True,True,11,7,6,18,1,11,Stop
True,True,True,True,17,12,13,13,15,3,East
True,True,True,True,13,14,12,5,15,5,North
False,True,False,False,-666,11,-666,-666,13,17,North
True,True,True,True,17,11,5,7,17,8,West
True,True,True,True,14,14,19,16,14,3,Stop
True,False,False,False,11,-666,-666,-666,8,5,South
