1,0,0.184720039368
2,0,0.205847978592
3,0,0.221415996552
4,0,0.235569953918
5,0,0.250462055206
6,0,0.264438867569
7,0,0.283493995667
8,0,0.298202991486
9,0,0.312106847763
10,0,0.32692694664
11,0,0.341248989105
12,0,0.354558944702
13,0,0.368275880814
14,0,0.383476018906
15,0,0.397032022476
16,0,0.414788961411
17,0,0.427937984467
18,0,0.447370052338
19,0,0.461390972137
20,0,0.474946975708
21,0,0.488885879517
22,0,0.503185033798
23,0,0.517051935196
24,0,0.534420967102
25,0,0.547404050827
26,0,0.560825824738
27,0,0.574880838394
28,0,0.5882999897
29,0,0.602318048477
30,0,0.615982055664
31,0,0.632448911667
32,0,0.645421028137
33,0,0.662108898163
34,0,0.674939870834
35,0,0.688896894455
36,0,0.702538013458
37,0,0.716455936432
38,0,0.73578286171
39,0,0.749723911285
40,0,0.76305603981
41,0,0.777276992798
42,0,0.791471004486
43,0,0.806563854218
44,0,0.819700956345
45,0,0.837929964066
46,0,0.856891870499
47,1,0.878046989441
48,1,0.89245390892
49,1,0.908362865448
50,2,0.923816919327
51,2,0.938609838486
52,2,0.953042030334
53,2,0.968570947647
54,2,0.989279985428
55,2,1.00338101387
56,2,1.01870894432
57,2,1.0369489193
58,2,1.05717992783
59,2,1.07424688339
60,2,1.09002399445
61,2,1.1069920063
62,2,1.12222194672
63,2,1.13719701767
64,2,1.16266298294
65,2,1.18226790428
66,2,1.19910502434
67,2,1.21498203278
68,2,1.23306298256
69,2,1.24792790413
70,2,1.26357603073
71,2,1.27861189842
72,2,1.30044603348
73,2,1.31792187691
74,2,1.33831787109
75,2,1.35523200035
76,2,1.37012887001
77,2,1.3846809864
78,2,1.39973497391
79,2,1.41490197182
80,2,1.42997288704
81,2,1.44509887695
82,2,1.46810483932
83,2,1.48819303513
84,2,1.50713801384
85,2,1.52636504173
86,2,1.54236388206
87,2,1.55778193474
88,2,1.5736579895
89,2,1.59876799583
90,2,1.61435294151
91,2,1.63016104698
92,2,1.64607691765
93,2,1.66155290604
94,2,1.67663192749
95,2,1.6975839138
96,2,1.71476697922
97,2,1.73074388504
98,2,1.74537205696
99,2,1.76086997986
100,2,1.78137397766
101,2,1.79531288147
102,2,1.81066203117
103,2,1.8286190033
104,2,1.8453938961
105,2,1.86599493027
106,3,1.88080191612
107,3,1.89717197418
108,3,1.91577291489
109,3,1.93583202362
110,3,1.95099401474
111,3,1.96744894981
112,3,1.98859882355
113,3,2.01082801819
114,3,2.02714490891
115,3,2.04232788086
116,3,2.05761098862
117,3,2.0741019249
118,3,2.09071588516
119,3,2.11020994186
120,3,2.12575697899
121,3,2.1413090229
122,3,2.1625919342
123,3,2.17706084251
124,3,2.19945883751
125,3,2.21553587914
126,3,2.23323988914
127,3,2.24878382683
128,3,2.26476192474
129,3,2.28190088272
130,3,2.29756188393
131,3,2.31521391869
132,3,2.33443593979
133,3,2.35100388527
134,3,2.366574049
135,3,2.38423705101
136,3,2.40409803391
137,3,2.41867899895
138,3,2.43494606018
139,3,2.4503018856
140,3,2.46559691429
141,3,2.48429703712
142,3,2.50750589371
143,3,2.52609491348
144,3,2.54791593552
145,3,2.56334400177
146,3,2.58018493652
147,3,2.60181593895
148,3,2.61995196342
149,3,2.63566088676
150,3,2.65205097198
151,3,2.66662502289
152,3,2.68164396286
153,3,2.70499205589
