0,0,0.234926939011
0,0,0.395810842514
0,0,0.53239107132
0,0,0.67244887352
1,0,0.816040039062
2,0,0.955157995224
3,0,1.09531402588
4,0,1.23859596252
5,1,1.37871599197
6,2,1.50930786133
7,2,1.6434340477
8,3,1.78100085258
9,3,1.9142999649
10,3,2.04293894768
11,3,2.17342591286
12,3,2.30321288109
13,3,2.43236899376
14,3,2.56192588806
15,3,2.69320893288
16,3,2.8245370388
17,3,2.95678687096
18,3,3.08835291862
19,3,3.21851396561