%!PS-Adobe-2.0 EPSF-2.0
%%Title: /home/patataman/Escritorio/a-a-fight-the-power/Practica3/Diagrama.dia
%%Creator: Dia v0.97.2
%%CreationDate: Sun May  8 15:59:59 2016
%%For: patataman
%%Orientation: Portrait
%%Magnification: 1.0000
%%BoundingBox: 0 0 1095 498
%%BeginSetup
%%EndSetup
%%EndComments
%%BeginProlog
[ /.notdef /.notdef /.notdef /.notdef /.notdef /.notdef /.notdef /.notdef /.notdef /.notdef
/.notdef /.notdef /.notdef /.notdef /.notdef /.notdef /.notdef /.notdef /.notdef /.notdef
/.notdef /.notdef /.notdef /.notdef /.notdef /.notdef /.notdef /.notdef /.notdef /.notdef
/.notdef /.notdef /space /exclam /quotedbl /numbersign /dollar /percent /ampersand /quoteright
/parenleft /parenright /asterisk /plus /comma /hyphen /period /slash /zero /one
/two /three /four /five /six /seven /eight /nine /colon /semicolon
/less /equal /greater /question /at /A /B /C /D /E
/F /G /H /I /J /K /L /M /N /O
/P /Q /R /S /T /U /V /W /X /Y
/Z /bracketleft /backslash /bracketright /asciicircum /underscore /quoteleft /a /b /c
/d /e /f /g /h /i /j /k /l /m
/n /o /p /q /r /s /t /u /v /w
/x /y /z /braceleft /bar /braceright /asciitilde /.notdef /.notdef /.notdef
/.notdef /.notdef /.notdef /.notdef /.notdef /.notdef /.notdef /.notdef /.notdef /.notdef
/.notdef /.notdef /.notdef /.notdef /.notdef /.notdef /.notdef /.notdef /.notdef /.notdef
/.notdef /.notdef /.notdef /.notdef /.notdef /.notdef /.notdef /.notdef /.notdef /.notdef
/space /exclamdown /cent /sterling /currency /yen /brokenbar /section /dieresis /copyright
/ordfeminine /guillemotleft /logicalnot /hyphen /registered /macron /degree /plusminus /twosuperior /threesuperior
/acute /mu /paragraph /periodcentered /cedilla /onesuperior /ordmasculine /guillemotright /onequarter /onehalf
/threequarters /questiondown /Agrave /Aacute /Acircumflex /Atilde /Adieresis /Aring /AE /Ccedilla
/Egrave /Eacute /Ecircumflex /Edieresis /Igrave /Iacute /Icircumflex /Idieresis /Eth /Ntilde
/Ograve /Oacute /Ocircumflex /Otilde /Odieresis /multiply /Oslash /Ugrave /Uacute /Ucircumflex
/Udieresis /Yacute /Thorn /germandbls /agrave /aacute /acircumflex /atilde /adieresis /aring
/ae /ccedilla /egrave /eacute /ecircumflex /edieresis /igrave /iacute /icircumflex /idieresis
/eth /ntilde /ograve /oacute /ocircumflex /otilde /odieresis /divide /oslash /ugrave
/uacute /ucircumflex /udieresis /yacute /thorn /ydieresis] /isolatin1encoding exch def
/cp {closepath} bind def
/c {curveto} bind def
/f {fill} bind def
/a {arc} bind def
/ef {eofill} bind def
/ex {exch} bind def
/gr {grestore} bind def
/gs {gsave} bind def
/sa {save} bind def
/rs {restore} bind def
/l {lineto} bind def
/m {moveto} bind def
/rm {rmoveto} bind def
/n {newpath} bind def
/s {stroke} bind def
/sh {show} bind def
/slc {setlinecap} bind def
/slj {setlinejoin} bind def
/slw {setlinewidth} bind def
/srgb {setrgbcolor} bind def
/rot {rotate} bind def
/sc {scale} bind def
/sd {setdash} bind def
/ff {findfont} bind def
/sf {setfont} bind def
/scf {scalefont} bind def
/sw {stringwidth pop} bind def
/tr {translate} bind def

/ellipsedict 8 dict def
ellipsedict /mtrx matrix put
/ellipse
{ ellipsedict begin
   /endangle exch def
   /startangle exch def
   /yrad exch def
   /xrad exch def
   /y exch def
   /x exch def   /savematrix mtrx currentmatrix def
   x y tr xrad yrad sc
   0 0 1 startangle endangle arc
   savematrix setmatrix
   end
} def

/mergeprocs {
dup length
3 -1 roll
dup
length
dup
5 1 roll
3 -1 roll
add
array cvx
dup
3 -1 roll
0 exch
putinterval
dup
4 2 roll
putinterval
} bind def
/dpi_x 300 def
/dpi_y 300 def
/conicto {
    /to_y exch def
    /to_x exch def
    /conic_cntrl_y exch def
    /conic_cntrl_x exch def
    currentpoint
    /p0_y exch def
    /p0_x exch def
    /p1_x p0_x conic_cntrl_x p0_x sub 2 3 div mul add def
    /p1_y p0_y conic_cntrl_y p0_y sub 2 3 div mul add def
    /p2_x p1_x to_x p0_x sub 1 3 div mul add def
    /p2_y p1_y to_y p0_y sub 1 3 div mul add def
    p1_x p1_y p2_x p2_y to_x to_y curveto
} bind def
/start_ol { gsave 1.1 dpi_x div dup scale} bind def
/end_ol { closepath fill grestore } bind def
28.346000 -28.346000 scale
-13.950000 -28.050143 translate
%%EndProlog


0.100000 slw
[] 0 sd
1.000000 1.000000 1.000000 srgb
n 14.500000 15.600000 m 14.500000 18.200000 l 20.800000 18.200000 l 20.800000 15.600000 l f
n 14.500000 16.100000 m 14.500000 16.100000 0.500000 0.500000 180.000000 270.000000 ellipse f
n 20.800000 16.100000 m 20.800000 16.100000 0.500000 0.500000 270.000000 360.000000 ellipse f
n 14.000000 16.100000 m 14.000000 17.700000 l 21.300000 17.700000 l 21.300000 16.100000 l f
n 14.500000 17.700000 m 14.500000 17.700000 0.500000 0.500000 90.000000 180.000000 ellipse f
n 20.800000 17.700000 m 20.800000 17.700000 0.500000 0.500000 0.000000 90.000000 ellipse f
0.000000 0.000000 0.000000 srgb
n 14.500000 15.600000 m 20.800000 15.600000 l s
n 14.500000 18.200000 m 20.800000 18.200000 l s
n 14.500000 16.100000 0.500000 0.500000 180.000000 270.000000 ellipse s
n 20.800000 16.100000 0.500000 0.500000 270.000000 360.000000 ellipse s
n 14.000000 16.100000 m 14.000000 17.700000 l s
n 21.300000 16.100000 m 21.300000 17.700000 l s
n 14.500000 17.700000 0.500000 0.500000 90.000000 180.000000 ellipse s
n 20.800000 17.700000 0.500000 0.500000 0.000000 90.000000 ellipse s
gsave 14.923750 16.695000 translate 0.035278 -0.035278 scale
start_ol
1696 3047 moveto
1042 1280 lineto
2352 1280 lineto
1696 3047 lineto
1424 3520 moveto
1970 3520 lineto
3328 0 lineto
2827 0 lineto
2502 896 lineto
897 896 lineto
572 0 lineto
64 0 lineto
1424 3520 lineto
end_ol grestore 
gsave 15.360842 16.695000 translate 0.035278 -0.035278 scale
start_ol
2176 1375 moveto
2176 1848 1982 2108 conicto
1789 2368 1439 2368 conicto
1091 2368 897 2108 conicto
704 1848 704 1375 conicto
704 904 897 644 conicto
1091 384 1439 384 conicto
1789 384 1982 644 conicto
2176 904 2176 1375 conicto
2624 347 moveto
2624 -347 2323 -685 conicto
2023 -1024 1404 -1024 conicto
1174 -1024 971 -992 conicto
768 -961 576 -896 conicto
576 -448 lineto
766 -546 951 -593 conicto
1137 -640 1329 -640 conicto
1754 -640 1965 -415 conicto
2176 -190 2176 264 conicto
2176 448 lineto
2042 223 1833 111 conicto
1624 0 1332 0 conicto
848 0 552 376 conicto
256 753 256 1375 conicto
256 1999 552 2375 conicto
848 2752 1332 2752 conicto
1624 2752 1833 2640 conicto
2042 2529 2176 2304 conicto
2176 2688 lineto
2624 2688 lineto
2624 347 lineto
end_ol grestore 
gsave 15.767961 16.695000 translate 0.035278 -0.035278 scale
start_ol
2752 1480 moveto
2752 1280 lineto
704 1280 lineto
733 811 978 565 conicto
1223 320 1660 320 conicto
1914 320 2152 384 conicto
2390 448 2624 576 conicto
2624 192 lineto
2388 67 2140 1 conicto
1893 -64 1639 -64 conicto
1001 -64 628 309 conicto
256 683 256 1320 conicto
256 1979 613 2365 conicto
970 2752 1576 2752 conicto
2120 2752 2436 2410 conicto
2752 2068 2752 1480 conicto
2304 1600 moveto
2299 1950 2099 2159 conicto
1900 2368 1572 2368 conicto
1200 2368 976 2166 conicto
753 1964 719 1597 conicto
2304 1600 lineto
end_ol grestore 
gsave 16.162587 16.695000 translate 0.035278 -0.035278 scale
start_ol
2688 1646 moveto
2688 0 lineto
2240 0 lineto
2240 1632 lineto
2240 2001 2093 2184 conicto
1947 2368 1654 2368 conicto
1302 2368 1099 2146 conicto
896 1925 896 1542 conicto
896 0 lineto
448 0 lineto
448 2688 lineto
896 2688 lineto
896 2304 lineto
1053 2529 1266 2640 conicto
1479 2752 1757 2752 conicto
2217 2752 2452 2471 conicto
2688 2191 2688 1646 conicto
end_ol grestore 
gsave 16.567201 16.695000 translate 0.035278 -0.035278 scale
start_ol
896 3456 moveto
896 2688 lineto
1792 2688 lineto
1792 2368 lineto
896 2368 lineto
896 902 lineto
896 572 984 478 conicto
1073 384 1345 384 conicto
1792 384 lineto
1792 0 lineto
1345 0 lineto
836 0 642 194 conicto
448 389 448 902 conicto
448 2368 lineto
128 2368 lineto
128 2688 lineto
448 2688 lineto
448 3456 lineto
896 3456 lineto
end_ol grestore 
gsave 16.816968 16.695000 translate 0.035278 -0.035278 scale
start_ol
2752 1480 moveto
2752 1280 lineto
704 1280 lineto
733 811 978 565 conicto
1223 320 1660 320 conicto
1914 320 2152 384 conicto
2390 448 2624 576 conicto
2624 192 lineto
2388 67 2140 1 conicto
1893 -64 1639 -64 conicto
1001 -64 628 309 conicto
256 683 256 1320 conicto
256 1979 613 2365 conicto
970 2752 1576 2752 conicto
2120 2752 2436 2410 conicto
2752 2068 2752 1480 conicto
2304 1600 moveto
2299 1950 2099 2159 conicto
1900 2368 1572 2368 conicto
1200 2368 976 2166 conicto
753 1964 719 1597 conicto
2304 1600 lineto
end_ol grestore 
gsave 17.211594 16.695000 translate 0.035278 -0.035278 scale
start_ol
end_ol grestore 
gsave 17.413901 16.695000 translate 0.035278 -0.035278 scale
start_ol
-64 3520 moveto
3008 3520 lineto
3008 3136 lineto
1728 3136 lineto
1728 0 lineto
1216 0 lineto
1216 3136 lineto
-64 3136 lineto
-64 3520 lineto
end_ol grestore 
gsave 17.706125 16.695000 translate 0.035278 -0.035278 scale
start_ol
448 1040 moveto
448 2688 lineto
896 2688 lineto
896 1057 lineto
896 689 1042 504 conicto
1188 320 1481 320 conicto
1832 320 2036 541 conicto
2240 763 2240 1145 conicto
2240 2688 lineto
2688 2688 lineto
2688 0 lineto
2240 0 lineto
2240 384 lineto
2081 157 1870 46 conicto
1660 -64 1382 -64 conicto
923 -64 685 217 conicto
448 499 448 1040 conicto
1554 2752 moveto
1554 2752 lineto
end_ol grestore 
gsave 18.110739 16.695000 translate 0.035278 -0.035278 scale
start_ol
896 3456 moveto
896 2688 lineto
1792 2688 lineto
1792 2368 lineto
896 2368 lineto
896 902 lineto
896 572 984 478 conicto
1073 384 1345 384 conicto
1792 384 lineto
1792 0 lineto
1345 0 lineto
836 0 642 194 conicto
448 389 448 902 conicto
448 2368 lineto
128 2368 lineto
128 2688 lineto
448 2688 lineto
448 3456 lineto
896 3456 lineto
end_ol grestore 
gsave 18.360506 16.695000 translate 0.035278 -0.035278 scale
start_ol
1473 2368 moveto
1117 2368 910 2094 conicto
704 1820 704 1344 conicto
704 868 909 594 conicto
1115 320 1473 320 conicto
1827 320 2033 595 conicto
2240 870 2240 1344 conicto
2240 1816 2033 2092 conicto
1827 2368 1473 2368 conicto
1472 2752 moveto
2040 2752 2364 2378 conicto
2688 2005 2688 1344 conicto
2688 685 2364 310 conicto
2040 -64 1472 -64 conicto
902 -64 579 310 conicto
256 685 256 1344 conicto
256 2005 579 2378 conicto
902 2752 1472 2752 conicto
end_ol grestore 
gsave 18.752635 16.695000 translate 0.035278 -0.035278 scale
start_ol
1984 2304 moveto
1912 2337 1828 2352 conicto
1744 2368 1642 2368 conicto
1282 2368 1089 2127 conicto
896 1887 896 1437 conicto
896 0 lineto
448 0 lineto
448 2688 lineto
896 2688 lineto
896 2304 lineto
1030 2531 1245 2641 conicto
1460 2752 1767 2752 conicto
1811 2752 1864 2752 conicto
1917 2752 1982 2752 conicto
1984 2304 lineto
end_ol grestore 
gsave 19.014886 16.695000 translate 0.035278 -0.035278 scale
start_ol
448 2688 moveto
896 2688 lineto
896 0 lineto
448 0 lineto
448 2688 lineto
448 3712 moveto
896 3712 lineto
896 3136 lineto
448 3136 lineto
448 3712 lineto
end_ol grestore 
gsave 19.192215 16.695000 translate 0.035278 -0.035278 scale
start_ol
1622 1344 moveto
1104 1344 904 1225 conicto
704 1106 704 818 conicto
704 589 854 454 conicto
1004 320 1262 320 conicto
1618 320 1833 572 conicto
2048 825 2048 1244 conicto
2048 1344 lineto
1622 1344 lineto
2496 1513 moveto
2496 0 lineto
2048 0 lineto
2048 384 lineto
1900 154 1679 45 conicto
1458 -64 1138 -64 conicto
733 -64 494 162 conicto
256 389 256 769 conicto
256 1213 555 1438 conicto
854 1664 1448 1664 conicto
2048 1664 lineto
2048 1712 lineto
2048 2025 1851 2196 conicto
1655 2368 1300 2368 conicto
1074 2368 860 2320 conicto
646 2272 448 2176 conicto
448 2560 lineto
687 2656 912 2704 conicto
1138 2752 1351 2752 conicto
1927 2752 2211 2444 conicto
2496 2137 2496 1513 conicto
end_ol grestore 
gsave 19.584344 16.695000 translate 0.035278 -0.035278 scale
start_ol
448 3712 moveto
896 3712 lineto
896 0 lineto
448 0 lineto
448 3712 lineto
end_ol grestore 
gsave 19.761673 16.695000 translate 0.035278 -0.035278 scale
start_ol
end_ol grestore 
gsave 19.963980 16.695000 translate 0.035278 -0.035278 scale
start_ol
640 384 moveto
1408 384 lineto
1408 3136 lineto
576 2944 lineto
576 3328 lineto
1434 3520 lineto
1920 3520 lineto
1920 384 lineto
2688 384 lineto
2688 0 lineto
640 0 lineto
640 384 lineto
end_ol grestore 
gsave 14.500000 17.495000 translate 0.035278 -0.035278 scale
start_ol
2816 504 moveto
2816 1472 lineto
2048 1472 lineto
2048 1856 lineto
3328 1856 lineto
3328 325 lineto
3052 133 2720 34 conicto
2388 -64 2011 -64 conicto
1187 -64 721 417 conicto
256 899 256 1759 conicto
256 2621 725 3102 conicto
1195 3584 2028 3584 conicto
2375 3584 2687 3503 conicto
3000 3422 3264 3264 conicto
3264 2752 lineto
2998 2975 2699 3087 conicto
2400 3200 2071 3200 conicto
1420 3200 1094 2838 conicto
768 2476 768 1759 conicto
768 1044 1084 682 conicto
1400 320 2030 320 conicto
2276 320 2469 365 conicto
2662 410 2816 504 conicto
end_ol grestore 
gsave 14.994531 17.495000 translate 0.035278 -0.035278 scale
start_ol
1984 2304 moveto
1912 2337 1828 2352 conicto
1744 2368 1642 2368 conicto
1282 2368 1089 2127 conicto
896 1887 896 1437 conicto
896 0 lineto
448 0 lineto
448 2688 lineto
896 2688 lineto
896 2304 lineto
1030 2531 1245 2641 conicto
1460 2752 1767 2752 conicto
1811 2752 1864 2752 conicto
1917 2752 1982 2752 conicto
1984 2304 lineto
end_ol grestore 
gsave 15.241792 17.495000 translate 0.035278 -0.035278 scale
start_ol
2752 1480 moveto
2752 1280 lineto
704 1280 lineto
733 811 978 565 conicto
1223 320 1660 320 conicto
1914 320 2152 384 conicto
2390 448 2624 576 conicto
2624 192 lineto
2388 67 2140 1 conicto
1893 -64 1639 -64 conicto
1001 -64 628 309 conicto
256 683 256 1320 conicto
256 1979 613 2365 conicto
970 2752 1576 2752 conicto
2120 2752 2436 2410 conicto
2752 2068 2752 1480 conicto
2304 1600 moveto
2299 1950 2099 2159 conicto
1900 2368 1572 2368 conicto
1200 2368 976 2166 conicto
753 1964 719 1597 conicto
2304 1600 lineto
end_ol grestore 
gsave 15.636418 17.495000 translate 0.035278 -0.035278 scale
start_ol
2752 1480 moveto
2752 1280 lineto
704 1280 lineto
733 811 978 565 conicto
1223 320 1660 320 conicto
1914 320 2152 384 conicto
2390 448 2624 576 conicto
2624 192 lineto
2388 67 2140 1 conicto
1893 -64 1639 -64 conicto
1001 -64 628 309 conicto
256 683 256 1320 conicto
256 1979 613 2365 conicto
970 2752 1576 2752 conicto
2120 2752 2436 2410 conicto
2752 2068 2752 1480 conicto
2304 1600 moveto
2299 1950 2099 2159 conicto
1900 2368 1572 2368 conicto
1200 2368 976 2166 conicto
753 1964 719 1597 conicto
2304 1600 lineto
end_ol grestore 
gsave 16.031045 17.495000 translate 0.035278 -0.035278 scale
start_ol
2176 2304 moveto
2176 3712 lineto
2624 3712 lineto
2624 0 lineto
2176 0 lineto
2176 384 lineto
2040 157 1832 46 conicto
1624 -64 1332 -64 conicto
855 -64 555 324 conicto
256 712 256 1344 conicto
256 1976 555 2364 conicto
855 2752 1332 2752 conicto
1624 2752 1832 2641 conicto
2040 2531 2176 2304 conicto
704 1344 moveto
704 865 900 592 conicto
1096 320 1439 320 conicto
1782 320 1979 592 conicto
2176 865 2176 1344 conicto
2176 1823 1979 2095 conicto
1782 2368 1439 2368 conicto
1096 2368 900 2095 conicto
704 1823 704 1344 conicto
end_ol grestore 
gsave 16.438164 17.495000 translate 0.035278 -0.035278 scale
start_ol
1542 -238 moveto
1360 -726 1187 -875 conicto
1015 -1024 726 -1024 conicto
384 -1024 lineto
384 -640 lineto
636 -640 lineto
813 -640 910 -555 conicto
1008 -470 1127 -155 conicto
1204 46 lineto
128 2688 lineto
603 2688 lineto
1418 586 lineto
2234 2688 lineto
2688 2688 lineto
1542 -238 lineto
end_ol grestore 
gsave 16.817808 17.495000 translate 0.035278 -0.035278 scale
start_ol
960 1728 moveto
960 384 lineto
1696 384 lineto
2071 384 2251 550 conicto
2432 716 2432 1057 conicto
2432 1401 2251 1564 conicto
2071 1728 1696 1728 conicto
960 1728 lineto
960 3136 moveto
960 2112 lineto
1639 2112 lineto
1975 2112 2139 2238 conicto
2304 2365 2304 2624 conicto
2304 2881 2139 3008 conicto
1975 3136 1639 3136 conicto
960 3136 lineto
448 3520 moveto
1673 3520 lineto
2222 3520 2519 3300 conicto
2816 3080 2816 2674 conicto
2816 2360 2658 2174 conicto
2500 1989 2193 1943 conicto
2549 1866 2746 1621 conicto
2944 1376 2944 1009 conicto
2944 526 2625 263 conicto
2306 0 1718 0 conicto
448 0 lineto
448 3520 lineto
end_ol grestore 
gsave 17.257397 17.495000 translate 0.035278 -0.035278 scale
start_ol
448 1040 moveto
448 2688 lineto
896 2688 lineto
896 1057 lineto
896 689 1042 504 conicto
1188 320 1481 320 conicto
1832 320 2036 541 conicto
2240 763 2240 1145 conicto
2240 2688 lineto
2688 2688 lineto
2688 0 lineto
2240 0 lineto
2240 384 lineto
2081 157 1870 46 conicto
1660 -64 1382 -64 conicto
923 -64 685 217 conicto
448 499 448 1040 conicto
1554 2752 moveto
1554 2752 lineto
end_ol grestore 
gsave 17.662011 17.495000 translate 0.035278 -0.035278 scale
start_ol
2112 2560 moveto
2112 2176 lineto
1932 2272 1738 2320 conicto
1544 2368 1336 2368 conicto
1020 2368 862 2269 conicto
704 2170 704 1972 conicto
704 1821 814 1735 conicto
925 1649 1260 1571 conicto
1403 1538 lineto
1857 1438 2048 1255 conicto
2240 1072 2240 744 conicto
2240 371 1954 153 conicto
1668 -64 1167 -64 conicto
958 -64 732 -16 conicto
506 32 256 128 conicto
256 576 lineto
491 448 719 384 conicto
947 320 1170 320 conicto
1470 320 1631 425 conicto
1792 531 1792 722 conicto
1792 900 1678 994 conicto
1564 1089 1177 1177 conicto
1032 1212 lineto
621 1298 438 1476 conicto
256 1654 256 1964 conicto
256 2341 520 2546 conicto
784 2752 1269 2752 conicto
1509 2752 1721 2704 conicto
1933 2656 2112 2560 conicto
end_ol grestore 
gsave 17.994195 17.495000 translate 0.035278 -0.035278 scale
start_ol
896 3456 moveto
896 2688 lineto
1792 2688 lineto
1792 2368 lineto
896 2368 lineto
896 902 lineto
896 572 984 478 conicto
1073 384 1345 384 conicto
1792 384 lineto
1792 0 lineto
1345 0 lineto
836 0 642 194 conicto
448 389 448 902 conicto
448 2368 lineto
128 2368 lineto
128 2688 lineto
448 2688 lineto
448 3456 lineto
896 3456 lineto
end_ol grestore 
gsave 18.243962 17.495000 translate 0.035278 -0.035278 scale
start_ol
2752 1480 moveto
2752 1280 lineto
704 1280 lineto
733 811 978 565 conicto
1223 320 1660 320 conicto
1914 320 2152 384 conicto
2390 448 2624 576 conicto
2624 192 lineto
2388 67 2140 1 conicto
1893 -64 1639 -64 conicto
1001 -64 628 309 conicto
256 683 256 1320 conicto
256 1979 613 2365 conicto
970 2752 1576 2752 conicto
2120 2752 2436 2410 conicto
2752 2068 2752 1480 conicto
2304 1600 moveto
2299 1950 2099 2159 conicto
1900 2368 1572 2368 conicto
1200 2368 976 2166 conicto
753 1964 719 1597 conicto
2304 1600 lineto
end_ol grestore 
gsave 18.638588 17.495000 translate 0.035278 -0.035278 scale
start_ol
1984 2304 moveto
1912 2337 1828 2352 conicto
1744 2368 1642 2368 conicto
1282 2368 1089 2127 conicto
896 1887 896 1437 conicto
896 0 lineto
448 0 lineto
448 2688 lineto
896 2688 lineto
896 2304 lineto
1030 2531 1245 2641 conicto
1460 2752 1767 2752 conicto
1811 2752 1864 2752 conicto
1917 2752 1982 2752 conicto
1984 2304 lineto
end_ol grestore 
gsave 18.900839 17.495000 translate 0.035278 -0.035278 scale
start_ol
1696 3047 moveto
1042 1280 lineto
2352 1280 lineto
1696 3047 lineto
1424 3520 moveto
1970 3520 lineto
3328 0 lineto
2827 0 lineto
2502 896 lineto
897 896 lineto
572 0 lineto
64 0 lineto
1424 3520 lineto
end_ol grestore 
gsave 19.337931 17.495000 translate 0.035278 -0.035278 scale
start_ol
2176 1375 moveto
2176 1848 1982 2108 conicto
1789 2368 1439 2368 conicto
1091 2368 897 2108 conicto
704 1848 704 1375 conicto
704 904 897 644 conicto
1091 384 1439 384 conicto
1789 384 1982 644 conicto
2176 904 2176 1375 conicto
2624 347 moveto
2624 -347 2323 -685 conicto
2023 -1024 1404 -1024 conicto
1174 -1024 971 -992 conicto
768 -961 576 -896 conicto
576 -448 lineto
766 -546 951 -593 conicto
1137 -640 1329 -640 conicto
1754 -640 1965 -415 conicto
2176 -190 2176 264 conicto
2176 448 lineto
2042 223 1833 111 conicto
1624 0 1332 0 conicto
848 0 552 376 conicto
256 753 256 1375 conicto
256 1999 552 2375 conicto
848 2752 1332 2752 conicto
1624 2752 1833 2640 conicto
2042 2529 2176 2304 conicto
2176 2688 lineto
2624 2688 lineto
2624 347 lineto
end_ol grestore 
gsave 19.745050 17.495000 translate 0.035278 -0.035278 scale
start_ol
2752 1480 moveto
2752 1280 lineto
704 1280 lineto
733 811 978 565 conicto
1223 320 1660 320 conicto
1914 320 2152 384 conicto
2390 448 2624 576 conicto
2624 192 lineto
2388 67 2140 1 conicto
1893 -64 1639 -64 conicto
1001 -64 628 309 conicto
256 683 256 1320 conicto
256 1979 613 2365 conicto
970 2752 1576 2752 conicto
2120 2752 2436 2410 conicto
2752 2068 2752 1480 conicto
2304 1600 moveto
2299 1950 2099 2159 conicto
1900 2368 1572 2368 conicto
1200 2368 976 2166 conicto
753 1964 719 1597 conicto
2304 1600 lineto
end_ol grestore 
gsave 20.139676 17.495000 translate 0.035278 -0.035278 scale
start_ol
2688 1646 moveto
2688 0 lineto
2240 0 lineto
2240 1632 lineto
2240 2001 2093 2184 conicto
1947 2368 1654 2368 conicto
1302 2368 1099 2146 conicto
896 1925 896 1542 conicto
896 0 lineto
448 0 lineto
448 2688 lineto
896 2688 lineto
896 2304 lineto
1053 2529 1266 2640 conicto
1479 2752 1757 2752 conicto
2217 2752 2452 2471 conicto
2688 2191 2688 1646 conicto
end_ol grestore 
gsave 20.544290 17.495000 translate 0.035278 -0.035278 scale
start_ol
896 3456 moveto
896 2688 lineto
1792 2688 lineto
1792 2368 lineto
896 2368 lineto
896 902 lineto
896 572 984 478 conicto
1073 384 1345 384 conicto
1792 384 lineto
1792 0 lineto
1345 0 lineto
836 0 642 194 conicto
448 389 448 902 conicto
448 2368 lineto
128 2368 lineto
128 2688 lineto
448 2688 lineto
448 3456 lineto
896 3456 lineto
end_ol grestore 
0.100000 slw
[] 0 sd
1.000000 1.000000 1.000000 srgb
n 26.700000 22.700000 m 26.700000 25.300000 l 32.357500 25.300000 l 32.357500 22.700000 l f
n 26.700000 23.200000 m 26.700000 23.200000 0.500000 0.500000 180.000000 270.000000 ellipse f
n 32.357500 23.200000 m 32.357500 23.200000 0.500000 0.500000 270.000000 360.000000 ellipse f
n 26.200000 23.200000 m 26.200000 24.800000 l 32.857500 24.800000 l 32.857500 23.200000 l f
n 26.700000 24.800000 m 26.700000 24.800000 0.500000 0.500000 90.000000 180.000000 ellipse f
n 32.357500 24.800000 m 32.357500 24.800000 0.500000 0.500000 0.000000 90.000000 ellipse f
0.000000 0.000000 0.000000 srgb
n 26.700000 22.700000 m 32.357500 22.700000 l s
n 26.700000 25.300000 m 32.357500 25.300000 l s
n 26.700000 23.200000 0.500000 0.500000 180.000000 270.000000 ellipse s
n 32.357500 23.200000 0.500000 0.500000 270.000000 360.000000 ellipse s
n 26.200000 23.200000 m 26.200000 24.800000 l s
n 32.857500 23.200000 m 32.857500 24.800000 l s
n 26.700000 24.800000 0.500000 0.500000 90.000000 180.000000 ellipse s
n 32.357500 24.800000 0.500000 0.500000 0.000000 90.000000 ellipse s
gsave 26.700000 23.795000 translate 0.035278 -0.035278 scale
start_ol
1696 3047 moveto
1042 1280 lineto
2352 1280 lineto
1696 3047 lineto
1424 3520 moveto
1970 3520 lineto
3328 0 lineto
2827 0 lineto
2502 896 lineto
897 896 lineto
572 0 lineto
64 0 lineto
1424 3520 lineto
end_ol grestore 
gsave 27.137092 23.795000 translate 0.035278 -0.035278 scale
start_ol
2176 1375 moveto
2176 1848 1982 2108 conicto
1789 2368 1439 2368 conicto
1091 2368 897 2108 conicto
704 1848 704 1375 conicto
704 904 897 644 conicto
1091 384 1439 384 conicto
1789 384 1982 644 conicto
2176 904 2176 1375 conicto
2624 347 moveto
2624 -347 2323 -685 conicto
2023 -1024 1404 -1024 conicto
1174 -1024 971 -992 conicto
768 -961 576 -896 conicto
576 -448 lineto
766 -546 951 -593 conicto
1137 -640 1329 -640 conicto
1754 -640 1965 -415 conicto
2176 -190 2176 264 conicto
2176 448 lineto
2042 223 1833 111 conicto
1624 0 1332 0 conicto
848 0 552 376 conicto
256 753 256 1375 conicto
256 1999 552 2375 conicto
848 2752 1332 2752 conicto
1624 2752 1833 2640 conicto
2042 2529 2176 2304 conicto
2176 2688 lineto
2624 2688 lineto
2624 347 lineto
end_ol grestore 
gsave 27.544211 23.795000 translate 0.035278 -0.035278 scale
start_ol
2752 1480 moveto
2752 1280 lineto
704 1280 lineto
733 811 978 565 conicto
1223 320 1660 320 conicto
1914 320 2152 384 conicto
2390 448 2624 576 conicto
2624 192 lineto
2388 67 2140 1 conicto
1893 -64 1639 -64 conicto
1001 -64 628 309 conicto
256 683 256 1320 conicto
256 1979 613 2365 conicto
970 2752 1576 2752 conicto
2120 2752 2436 2410 conicto
2752 2068 2752 1480 conicto
2304 1600 moveto
2299 1950 2099 2159 conicto
1900 2368 1572 2368 conicto
1200 2368 976 2166 conicto
753 1964 719 1597 conicto
2304 1600 lineto
end_ol grestore 
gsave 27.938837 23.795000 translate 0.035278 -0.035278 scale
start_ol
2688 1646 moveto
2688 0 lineto
2240 0 lineto
2240 1632 lineto
2240 2001 2093 2184 conicto
1947 2368 1654 2368 conicto
1302 2368 1099 2146 conicto
896 1925 896 1542 conicto
896 0 lineto
448 0 lineto
448 2688 lineto
896 2688 lineto
896 2304 lineto
1053 2529 1266 2640 conicto
1479 2752 1757 2752 conicto
2217 2752 2452 2471 conicto
2688 2191 2688 1646 conicto
end_ol grestore 
gsave 28.343451 23.795000 translate 0.035278 -0.035278 scale
start_ol
896 3456 moveto
896 2688 lineto
1792 2688 lineto
1792 2368 lineto
896 2368 lineto
896 902 lineto
896 572 984 478 conicto
1073 384 1345 384 conicto
1792 384 lineto
1792 0 lineto
1345 0 lineto
836 0 642 194 conicto
448 389 448 902 conicto
448 2368 lineto
128 2368 lineto
128 2688 lineto
448 2688 lineto
448 3456 lineto
896 3456 lineto
end_ol grestore 
gsave 28.593218 23.795000 translate 0.035278 -0.035278 scale
start_ol
2752 1480 moveto
2752 1280 lineto
704 1280 lineto
733 811 978 565 conicto
1223 320 1660 320 conicto
1914 320 2152 384 conicto
2390 448 2624 576 conicto
2624 192 lineto
2388 67 2140 1 conicto
1893 -64 1639 -64 conicto
1001 -64 628 309 conicto
256 683 256 1320 conicto
256 1979 613 2365 conicto
970 2752 1576 2752 conicto
2120 2752 2436 2410 conicto
2752 2068 2752 1480 conicto
2304 1600 moveto
2299 1950 2099 2159 conicto
1900 2368 1572 2368 conicto
1200 2368 976 2166 conicto
753 1964 719 1597 conicto
2304 1600 lineto
end_ol grestore 
gsave 28.987844 23.795000 translate 0.035278 -0.035278 scale
start_ol
end_ol grestore 
gsave 29.190151 23.795000 translate 0.035278 -0.035278 scale
start_ol
960 3136 moveto
960 1792 lineto
1552 1792 lineto
1881 1792 2060 1967 conicto
2240 2142 2240 2465 conicto
2240 2786 2060 2961 conicto
1881 3136 1552 3136 conicto
960 3136 lineto
448 3520 moveto
1552 3520 lineto
2145 3520 2448 3251 conicto
2752 2983 2752 2465 conicto
2752 1943 2448 1675 conicto
2145 1408 1552 1408 conicto
960 1408 lineto
960 0 lineto
448 0 lineto
448 3520 lineto
end_ol grestore 
gsave 29.564801 23.795000 translate 0.035278 -0.035278 scale
start_ol
1984 2304 moveto
1912 2337 1828 2352 conicto
1744 2368 1642 2368 conicto
1282 2368 1089 2127 conicto
896 1887 896 1437 conicto
896 0 lineto
448 0 lineto
448 2688 lineto
896 2688 lineto
896 2304 lineto
1030 2531 1245 2641 conicto
1460 2752 1767 2752 conicto
1811 2752 1864 2752 conicto
1917 2752 1982 2752 conicto
1984 2304 lineto
end_ol grestore 
gsave 29.827053 23.795000 translate 0.035278 -0.035278 scale
start_ol
1622 1344 moveto
1104 1344 904 1225 conicto
704 1106 704 818 conicto
704 589 854 454 conicto
1004 320 1262 320 conicto
1618 320 1833 572 conicto
2048 825 2048 1244 conicto
2048 1344 lineto
1622 1344 lineto
2496 1513 moveto
2496 0 lineto
2048 0 lineto
2048 384 lineto
1900 154 1679 45 conicto
1458 -64 1138 -64 conicto
733 -64 494 162 conicto
256 389 256 769 conicto
256 1213 555 1438 conicto
854 1664 1448 1664 conicto
2048 1664 lineto
2048 1712 lineto
2048 2025 1851 2196 conicto
1655 2368 1300 2368 conicto
1074 2368 860 2320 conicto
646 2272 448 2176 conicto
448 2560 lineto
687 2656 912 2704 conicto
1138 2752 1351 2752 conicto
1927 2752 2211 2444 conicto
2496 2137 2496 1513 conicto
end_ol grestore 
gsave 30.219182 23.795000 translate 0.035278 -0.035278 scale
start_ol
2368 2560 moveto
2368 2176 lineto
2180 2272 1991 2320 conicto
1803 2368 1611 2368 conicto
1180 2368 942 2099 conicto
704 1830 704 1344 conicto
704 858 942 589 conicto
1180 320 1611 320 conicto
1803 320 1991 368 conicto
2180 416 2368 512 conicto
2368 128 lineto
2184 32 1987 -16 conicto
1791 -64 1569 -64 conicto
966 -64 611 316 conicto
256 697 256 1344 conicto
256 2000 615 2376 conicto
974 2752 1598 2752 conicto
1801 2752 1994 2704 conicto
2187 2656 2368 2560 conicto
end_ol grestore 
gsave 30.571350 23.795000 translate 0.035278 -0.035278 scale
start_ol
896 3456 moveto
896 2688 lineto
1792 2688 lineto
1792 2368 lineto
896 2368 lineto
896 902 lineto
896 572 984 478 conicto
1073 384 1345 384 conicto
1792 384 lineto
1792 0 lineto
1345 0 lineto
836 0 642 194 conicto
448 389 448 902 conicto
448 2368 lineto
128 2368 lineto
128 2688 lineto
448 2688 lineto
448 3456 lineto
896 3456 lineto
end_ol grestore 
gsave 30.821117 23.795000 translate 0.035278 -0.035278 scale
start_ol
448 2688 moveto
896 2688 lineto
896 0 lineto
448 0 lineto
448 2688 lineto
448 3712 moveto
896 3712 lineto
896 3136 lineto
448 3136 lineto
448 3712 lineto
end_ol grestore 
gsave 30.998446 23.795000 translate 0.035278 -0.035278 scale
start_ol
2368 2560 moveto
2368 2176 lineto
2180 2272 1991 2320 conicto
1803 2368 1611 2368 conicto
1180 2368 942 2099 conicto
704 1830 704 1344 conicto
704 858 942 589 conicto
1180 320 1611 320 conicto
1803 320 1991 368 conicto
2180 416 2368 512 conicto
2368 128 lineto
2184 32 1987 -16 conicto
1791 -64 1569 -64 conicto
966 -64 611 316 conicto
256 697 256 1344 conicto
256 2000 615 2376 conicto
974 2752 1598 2752 conicto
1801 2752 1994 2704 conicto
2187 2656 2368 2560 conicto
end_ol grestore 
gsave 31.350614 23.795000 translate 0.035278 -0.035278 scale
start_ol
1622 1344 moveto
1104 1344 904 1225 conicto
704 1106 704 818 conicto
704 589 854 454 conicto
1004 320 1262 320 conicto
1618 320 1833 572 conicto
2048 825 2048 1244 conicto
2048 1344 lineto
1622 1344 lineto
2496 1513 moveto
2496 0 lineto
2048 0 lineto
2048 384 lineto
1900 154 1679 45 conicto
1458 -64 1138 -64 conicto
733 -64 494 162 conicto
256 389 256 769 conicto
256 1213 555 1438 conicto
854 1664 1448 1664 conicto
2048 1664 lineto
2048 1712 lineto
2048 2025 1851 2196 conicto
1655 2368 1300 2368 conicto
1074 2368 860 2320 conicto
646 2272 448 2176 conicto
448 2560 lineto
687 2656 912 2704 conicto
1138 2752 1351 2752 conicto
1927 2752 2211 2444 conicto
2496 2137 2496 1513 conicto
end_ol grestore 
gsave 31.742743 23.795000 translate 0.035278 -0.035278 scale
start_ol
end_ol grestore 
gsave 31.945050 23.795000 translate 0.035278 -0.035278 scale
start_ol
640 384 moveto
1408 384 lineto
1408 3136 lineto
576 2944 lineto
576 3328 lineto
1434 3520 lineto
1920 3520 lineto
1920 384 lineto
2688 384 lineto
2688 0 lineto
640 0 lineto
640 384 lineto
end_ol grestore 
gsave 28.067500 24.595000 translate 0.035278 -0.035278 scale
start_ol
448 3520 moveto
960 3520 lineto
960 237 lineto
960 -392 713 -676 conicto
467 -960 -79 -960 conicto
-256 -960 lineto
-256 -576 lineto
-112 -576 lineto
196 -576 322 -398 conicto
448 -221 448 237 conicto
448 3520 lineto
end_ol grestore 
gsave 28.257322 24.595000 translate 0.035278 -0.035278 scale
start_ol
1792 3103 moveto
630 1216 lineto
1792 1216 lineto
1792 3103 lineto
1709 3520 moveto
2304 3520 lineto
2304 1216 lineto
2816 1216 lineto
2816 832 lineto
2304 832 lineto
2304 0 lineto
1792 0 lineto
1792 832 lineto
256 832 lineto
256 1291 lineto
1709 3520 lineto
end_ol grestore 
gsave 28.664441 24.595000 translate 0.035278 -0.035278 scale
start_ol
1535 1664 moveto
1207 1664 1019 1485 conicto
832 1306 832 992 conicto
832 678 1019 499 conicto
1207 320 1535 320 conicto
1862 320 2051 500 conicto
2240 680 2240 992 conicto
2240 1306 2052 1485 conicto
1865 1664 1535 1664 conicto
1067 1872 moveto
744 1948 564 2158 conicto
384 2368 384 2670 conicto
384 3093 692 3338 conicto
1000 3584 1536 3584 conicto
2075 3584 2381 3338 conicto
2688 3093 2688 2670 conicto
2688 2368 2507 2158 conicto
2327 1948 2005 1872 conicto
2358 1792 2555 1559 conicto
2752 1327 2752 991 conicto
2752 481 2437 208 conicto
2123 -64 1536 -64 conicto
949 -64 634 208 conicto
320 481 320 991 conicto
320 1327 517 1559 conicto
715 1792 1067 1872 conicto
896 2624 moveto
896 2352 1064 2200 conicto
1232 2048 1535 2048 conicto
1836 2048 2006 2200 conicto
2176 2352 2176 2624 conicto
2176 2896 2006 3048 conicto
1836 3200 1535 3200 conicto
1232 3200 1064 3048 conicto
896 2896 896 2624 conicto
end_ol grestore 
gsave 29.071561 24.595000 translate 0.035278 -0.035278 scale
start_ol
1696 3047 moveto
1042 1280 lineto
2352 1280 lineto
1696 3047 lineto
1424 3520 moveto
1970 3520 lineto
3328 0 lineto
2827 0 lineto
2502 896 lineto
897 896 lineto
572 0 lineto
64 0 lineto
1424 3520 lineto
end_ol grestore 
gsave 29.508652 24.595000 translate 0.035278 -0.035278 scale
start_ol
2176 1375 moveto
2176 1848 1982 2108 conicto
1789 2368 1439 2368 conicto
1091 2368 897 2108 conicto
704 1848 704 1375 conicto
704 904 897 644 conicto
1091 384 1439 384 conicto
1789 384 1982 644 conicto
2176 904 2176 1375 conicto
2624 347 moveto
2624 -347 2323 -685 conicto
2023 -1024 1404 -1024 conicto
1174 -1024 971 -992 conicto
768 -961 576 -896 conicto
576 -448 lineto
766 -546 951 -593 conicto
1137 -640 1329 -640 conicto
1754 -640 1965 -415 conicto
2176 -190 2176 264 conicto
2176 448 lineto
2042 223 1833 111 conicto
1624 0 1332 0 conicto
848 0 552 376 conicto
256 753 256 1375 conicto
256 1999 552 2375 conicto
848 2752 1332 2752 conicto
1624 2752 1833 2640 conicto
2042 2529 2176 2304 conicto
2176 2688 lineto
2624 2688 lineto
2624 347 lineto
end_ol grestore 
gsave 29.915772 24.595000 translate 0.035278 -0.035278 scale
start_ol
2752 1480 moveto
2752 1280 lineto
704 1280 lineto
733 811 978 565 conicto
1223 320 1660 320 conicto
1914 320 2152 384 conicto
2390 448 2624 576 conicto
2624 192 lineto
2388 67 2140 1 conicto
1893 -64 1639 -64 conicto
1001 -64 628 309 conicto
256 683 256 1320 conicto
256 1979 613 2365 conicto
970 2752 1576 2752 conicto
2120 2752 2436 2410 conicto
2752 2068 2752 1480 conicto
2304 1600 moveto
2299 1950 2099 2159 conicto
1900 2368 1572 2368 conicto
1200 2368 976 2166 conicto
753 1964 719 1597 conicto
2304 1600 lineto
end_ol grestore 
gsave 30.310398 24.595000 translate 0.035278 -0.035278 scale
start_ol
2688 1646 moveto
2688 0 lineto
2240 0 lineto
2240 1632 lineto
2240 2001 2093 2184 conicto
1947 2368 1654 2368 conicto
1302 2368 1099 2146 conicto
896 1925 896 1542 conicto
896 0 lineto
448 0 lineto
448 2688 lineto
896 2688 lineto
896 2304 lineto
1053 2529 1266 2640 conicto
1479 2752 1757 2752 conicto
2217 2752 2452 2471 conicto
2688 2191 2688 1646 conicto
end_ol grestore 
gsave 30.715012 24.595000 translate 0.035278 -0.035278 scale
start_ol
896 3456 moveto
896 2688 lineto
1792 2688 lineto
1792 2368 lineto
896 2368 lineto
896 902 lineto
896 572 984 478 conicto
1073 384 1345 384 conicto
1792 384 lineto
1792 0 lineto
1345 0 lineto
836 0 642 194 conicto
448 389 448 902 conicto
448 2368 lineto
128 2368 lineto
128 2688 lineto
448 2688 lineto
448 3456 lineto
896 3456 lineto
end_ol grestore 
0.100000 slw
[] 0 sd
1.000000 1.000000 1.000000 srgb
n 26.350000 16.000000 m 26.350000 17.800000 l 32.337500 17.800000 l 32.337500 16.000000 l f
n 26.350000 16.500000 m 26.350000 16.500000 0.500000 0.500000 180.000000 270.000000 ellipse f
n 32.337500 16.500000 m 32.337500 16.500000 0.500000 0.500000 270.000000 360.000000 ellipse f
n 25.850000 16.500000 m 25.850000 17.300000 l 32.837500 17.300000 l 32.837500 16.500000 l f
n 26.350000 17.300000 m 26.350000 17.300000 0.500000 0.500000 90.000000 180.000000 ellipse f
n 32.337500 17.300000 m 32.337500 17.300000 0.500000 0.500000 0.000000 90.000000 ellipse f
0.000000 0.000000 0.000000 srgb
n 26.350000 16.000000 m 32.337500 16.000000 l s
n 26.350000 17.800000 m 32.337500 17.800000 l s
n 26.350000 16.500000 0.500000 0.500000 180.000000 270.000000 ellipse s
n 32.337500 16.500000 0.500000 0.500000 270.000000 360.000000 ellipse s
n 25.850000 16.500000 m 25.850000 17.300000 l s
n 32.837500 16.500000 m 32.837500 17.300000 l s
n 26.350000 17.300000 0.500000 0.500000 90.000000 180.000000 ellipse s
n 32.337500 17.300000 0.500000 0.500000 0.000000 90.000000 ellipse s
gsave 26.350000 17.095000 translate 0.035278 -0.035278 scale
start_ol
3136 3264 moveto
3136 2752 lineto
2892 2977 2616 3088 conicto
2340 3200 2030 3200 conicto
1418 3200 1093 2829 conicto
768 2459 768 1759 conicto
768 1061 1093 690 conicto
1418 320 2030 320 conicto
2340 320 2616 431 conicto
2892 543 3136 768 conicto
3136 256 lineto
2882 96 2599 16 conicto
2316 -64 2000 -64 conicto
1189 -64 722 424 conicto
256 913 256 1759 conicto
256 2607 722 3095 conicto
1189 3584 2000 3584 conicto
2320 3584 2603 3504 conicto
2887 3424 3136 3264 conicto
end_ol grestore 
gsave 26.797080 17.095000 translate 0.035278 -0.035278 scale
start_ol
448 3712 moveto
896 3712 lineto
896 0 lineto
448 0 lineto
448 3712 lineto
end_ol grestore 
gsave 26.974408 17.095000 translate 0.035278 -0.035278 scale
start_ol
1473 2368 moveto
1117 2368 910 2094 conicto
704 1820 704 1344 conicto
704 868 909 594 conicto
1115 320 1473 320 conicto
1827 320 2033 595 conicto
2240 870 2240 1344 conicto
2240 1816 2033 2092 conicto
1827 2368 1473 2368 conicto
1472 2752 moveto
2040 2752 2364 2378 conicto
2688 2005 2688 1344 conicto
2688 685 2364 310 conicto
2040 -64 1472 -64 conicto
902 -64 579 310 conicto
256 685 256 1344 conicto
256 2005 579 2378 conicto
902 2752 1472 2752 conicto
end_ol grestore 
gsave 27.366537 17.095000 translate 0.035278 -0.035278 scale
start_ol
2112 2560 moveto
2112 2176 lineto
1932 2272 1738 2320 conicto
1544 2368 1336 2368 conicto
1020 2368 862 2269 conicto
704 2170 704 1972 conicto
704 1821 814 1735 conicto
925 1649 1260 1571 conicto
1403 1538 lineto
1857 1438 2048 1255 conicto
2240 1072 2240 744 conicto
2240 371 1954 153 conicto
1668 -64 1167 -64 conicto
958 -64 732 -16 conicto
506 32 256 128 conicto
256 576 lineto
491 448 719 384 conicto
947 320 1170 320 conicto
1470 320 1631 425 conicto
1792 531 1792 722 conicto
1792 900 1678 994 conicto
1564 1089 1177 1177 conicto
1032 1212 lineto
621 1298 438 1476 conicto
256 1654 256 1964 conicto
256 2341 520 2546 conicto
784 2752 1269 2752 conicto
1509 2752 1721 2704 conicto
1933 2656 2112 2560 conicto
end_ol grestore 
gsave 27.698722 17.095000 translate 0.035278 -0.035278 scale
start_ol
2752 1480 moveto
2752 1280 lineto
704 1280 lineto
733 811 978 565 conicto
1223 320 1660 320 conicto
1914 320 2152 384 conicto
2390 448 2624 576 conicto
2624 192 lineto
2388 67 2140 1 conicto
1893 -64 1639 -64 conicto
1001 -64 628 309 conicto
256 683 256 1320 conicto
256 1979 613 2365 conicto
970 2752 1576 2752 conicto
2120 2752 2436 2410 conicto
2752 2068 2752 1480 conicto
2304 1600 moveto
2299 1950 2099 2159 conicto
1900 2368 1572 2368 conicto
1200 2368 976 2166 conicto
753 1964 719 1597 conicto
2304 1600 lineto
end_ol grestore 
gsave 28.093348 17.095000 translate 0.035278 -0.035278 scale
start_ol
1984 2304 moveto
1912 2337 1828 2352 conicto
1744 2368 1642 2368 conicto
1282 2368 1089 2127 conicto
896 1887 896 1437 conicto
896 0 lineto
448 0 lineto
448 2688 lineto
896 2688 lineto
896 2304 lineto
1030 2531 1245 2641 conicto
1460 2752 1767 2752 conicto
1811 2752 1864 2752 conicto
1917 2752 1982 2752 conicto
1984 2304 lineto
end_ol grestore 
gsave 28.355600 17.095000 translate 0.035278 -0.035278 scale
start_ol
960 1728 moveto
960 384 lineto
1696 384 lineto
2071 384 2251 550 conicto
2432 716 2432 1057 conicto
2432 1401 2251 1564 conicto
2071 1728 1696 1728 conicto
960 1728 lineto
960 3136 moveto
960 2112 lineto
1639 2112 lineto
1975 2112 2139 2238 conicto
2304 2365 2304 2624 conicto
2304 2881 2139 3008 conicto
1975 3136 1639 3136 conicto
960 3136 lineto
448 3520 moveto
1673 3520 lineto
2222 3520 2519 3300 conicto
2816 3080 2816 2674 conicto
2816 2360 2658 2174 conicto
2500 1989 2193 1943 conicto
2549 1866 2746 1621 conicto
2944 1376 2944 1009 conicto
2944 526 2625 263 conicto
2306 0 1718 0 conicto
448 0 lineto
448 3520 lineto
end_ol grestore 
gsave 28.795188 17.095000 translate 0.035278 -0.035278 scale
start_ol
448 1040 moveto
448 2688 lineto
896 2688 lineto
896 1057 lineto
896 689 1042 504 conicto
1188 320 1481 320 conicto
1832 320 2036 541 conicto
2240 763 2240 1145 conicto
2240 2688 lineto
2688 2688 lineto
2688 0 lineto
2240 0 lineto
2240 384 lineto
2081 157 1870 46 conicto
1660 -64 1382 -64 conicto
923 -64 685 217 conicto
448 499 448 1040 conicto
1554 2752 moveto
1554 2752 lineto
end_ol grestore 
gsave 29.199802 17.095000 translate 0.035278 -0.035278 scale
start_ol
2112 2560 moveto
2112 2176 lineto
1932 2272 1738 2320 conicto
1544 2368 1336 2368 conicto
1020 2368 862 2269 conicto
704 2170 704 1972 conicto
704 1821 814 1735 conicto
925 1649 1260 1571 conicto
1403 1538 lineto
1857 1438 2048 1255 conicto
2240 1072 2240 744 conicto
2240 371 1954 153 conicto
1668 -64 1167 -64 conicto
958 -64 732 -16 conicto
506 32 256 128 conicto
256 576 lineto
491 448 719 384 conicto
947 320 1170 320 conicto
1470 320 1631 425 conicto
1792 531 1792 722 conicto
1792 900 1678 994 conicto
1564 1089 1177 1177 conicto
1032 1212 lineto
621 1298 438 1476 conicto
256 1654 256 1964 conicto
256 2341 520 2546 conicto
784 2752 1269 2752 conicto
1509 2752 1721 2704 conicto
1933 2656 2112 2560 conicto
end_ol grestore 
gsave 29.531987 17.095000 translate 0.035278 -0.035278 scale
start_ol
896 3456 moveto
896 2688 lineto
1792 2688 lineto
1792 2368 lineto
896 2368 lineto
896 902 lineto
896 572 984 478 conicto
1073 384 1345 384 conicto
1792 384 lineto
1792 0 lineto
1345 0 lineto
836 0 642 194 conicto
448 389 448 902 conicto
448 2368 lineto
128 2368 lineto
128 2688 lineto
448 2688 lineto
448 3456 lineto
896 3456 lineto
end_ol grestore 
gsave 29.781753 17.095000 translate 0.035278 -0.035278 scale
start_ol
2752 1480 moveto
2752 1280 lineto
704 1280 lineto
733 811 978 565 conicto
1223 320 1660 320 conicto
1914 320 2152 384 conicto
2390 448 2624 576 conicto
2624 192 lineto
2388 67 2140 1 conicto
1893 -64 1639 -64 conicto
1001 -64 628 309 conicto
256 683 256 1320 conicto
256 1979 613 2365 conicto
970 2752 1576 2752 conicto
2120 2752 2436 2410 conicto
2752 2068 2752 1480 conicto
2304 1600 moveto
2299 1950 2099 2159 conicto
1900 2368 1572 2368 conicto
1200 2368 976 2166 conicto
753 1964 719 1597 conicto
2304 1600 lineto
end_ol grestore 
gsave 30.176379 17.095000 translate 0.035278 -0.035278 scale
start_ol
1984 2304 moveto
1912 2337 1828 2352 conicto
1744 2368 1642 2368 conicto
1282 2368 1089 2127 conicto
896 1887 896 1437 conicto
896 0 lineto
448 0 lineto
448 2688 lineto
896 2688 lineto
896 2304 lineto
1030 2531 1245 2641 conicto
1460 2752 1767 2752 conicto
1811 2752 1864 2752 conicto
1917 2752 1982 2752 conicto
1984 2304 lineto
end_ol grestore 
gsave 30.438631 17.095000 translate 0.035278 -0.035278 scale
start_ol
1696 3047 moveto
1042 1280 lineto
2352 1280 lineto
1696 3047 lineto
1424 3520 moveto
1970 3520 lineto
3328 0 lineto
2827 0 lineto
2502 896 lineto
897 896 lineto
572 0 lineto
64 0 lineto
1424 3520 lineto
end_ol grestore 
gsave 30.875723 17.095000 translate 0.035278 -0.035278 scale
start_ol
2176 1375 moveto
2176 1848 1982 2108 conicto
1789 2368 1439 2368 conicto
1091 2368 897 2108 conicto
704 1848 704 1375 conicto
704 904 897 644 conicto
1091 384 1439 384 conicto
1789 384 1982 644 conicto
2176 904 2176 1375 conicto
2624 347 moveto
2624 -347 2323 -685 conicto
2023 -1024 1404 -1024 conicto
1174 -1024 971 -992 conicto
768 -961 576 -896 conicto
576 -448 lineto
766 -546 951 -593 conicto
1137 -640 1329 -640 conicto
1754 -640 1965 -415 conicto
2176 -190 2176 264 conicto
2176 448 lineto
2042 223 1833 111 conicto
1624 0 1332 0 conicto
848 0 552 376 conicto
256 753 256 1375 conicto
256 1999 552 2375 conicto
848 2752 1332 2752 conicto
1624 2752 1833 2640 conicto
2042 2529 2176 2304 conicto
2176 2688 lineto
2624 2688 lineto
2624 347 lineto
end_ol grestore 
gsave 31.282842 17.095000 translate 0.035278 -0.035278 scale
start_ol
2752 1480 moveto
2752 1280 lineto
704 1280 lineto
733 811 978 565 conicto
1223 320 1660 320 conicto
1914 320 2152 384 conicto
2390 448 2624 576 conicto
2624 192 lineto
2388 67 2140 1 conicto
1893 -64 1639 -64 conicto
1001 -64 628 309 conicto
256 683 256 1320 conicto
256 1979 613 2365 conicto
970 2752 1576 2752 conicto
2120 2752 2436 2410 conicto
2752 2068 2752 1480 conicto
2304 1600 moveto
2299 1950 2099 2159 conicto
1900 2368 1572 2368 conicto
1200 2368 976 2166 conicto
753 1964 719 1597 conicto
2304 1600 lineto
end_ol grestore 
gsave 31.677468 17.095000 translate 0.035278 -0.035278 scale
start_ol
2688 1646 moveto
2688 0 lineto
2240 0 lineto
2240 1632 lineto
2240 2001 2093 2184 conicto
1947 2368 1654 2368 conicto
1302 2368 1099 2146 conicto
896 1925 896 1542 conicto
896 0 lineto
448 0 lineto
448 2688 lineto
896 2688 lineto
896 2304 lineto
1053 2529 1266 2640 conicto
1479 2752 1757 2752 conicto
2217 2752 2452 2471 conicto
2688 2191 2688 1646 conicto
end_ol grestore 
gsave 32.082082 17.095000 translate 0.035278 -0.035278 scale
start_ol
896 3456 moveto
896 2688 lineto
1792 2688 lineto
1792 2368 lineto
896 2368 lineto
896 902 lineto
896 572 984 478 conicto
1073 384 1345 384 conicto
1792 384 lineto
1792 0 lineto
1345 0 lineto
836 0 642 194 conicto
448 389 448 902 conicto
448 2368 lineto
128 2368 lineto
128 2688 lineto
448 2688 lineto
448 3456 lineto
896 3456 lineto
end_ol grestore 
0.100000 slw
[] 0 sd
1.000000 1.000000 1.000000 srgb
n 36.850000 15.800000 m 36.850000 18.400000 l 42.507500 18.400000 l 42.507500 15.800000 l f
n 36.850000 16.300000 m 36.850000 16.300000 0.500000 0.500000 180.000000 270.000000 ellipse f
n 42.507500 16.300000 m 42.507500 16.300000 0.500000 0.500000 270.000000 360.000000 ellipse f
n 36.350000 16.300000 m 36.350000 17.900000 l 43.007500 17.900000 l 43.007500 16.300000 l f
n 36.850000 17.900000 m 36.850000 17.900000 0.500000 0.500000 90.000000 180.000000 ellipse f
n 42.507500 17.900000 m 42.507500 17.900000 0.500000 0.500000 0.000000 90.000000 ellipse f
0.000000 0.000000 0.000000 srgb
n 36.850000 15.800000 m 42.507500 15.800000 l s
n 36.850000 18.400000 m 42.507500 18.400000 l s
n 36.850000 16.300000 0.500000 0.500000 180.000000 270.000000 ellipse s
n 42.507500 16.300000 0.500000 0.500000 270.000000 360.000000 ellipse s
n 36.350000 16.300000 m 36.350000 17.900000 l s
n 43.007500 16.300000 m 43.007500 17.900000 l s
n 36.850000 17.900000 0.500000 0.500000 90.000000 180.000000 ellipse s
n 42.507500 17.900000 0.500000 0.500000 0.000000 90.000000 ellipse s
gsave 36.850000 16.895000 translate 0.035278 -0.035278 scale
start_ol
1696 3047 moveto
1042 1280 lineto
2352 1280 lineto
1696 3047 lineto
1424 3520 moveto
1970 3520 lineto
3328 0 lineto
2827 0 lineto
2502 896 lineto
897 896 lineto
572 0 lineto
64 0 lineto
1424 3520 lineto
end_ol grestore 
gsave 37.287092 16.895000 translate 0.035278 -0.035278 scale
start_ol
2176 1375 moveto
2176 1848 1982 2108 conicto
1789 2368 1439 2368 conicto
1091 2368 897 2108 conicto
704 1848 704 1375 conicto
704 904 897 644 conicto
1091 384 1439 384 conicto
1789 384 1982 644 conicto
2176 904 2176 1375 conicto
2624 347 moveto
2624 -347 2323 -685 conicto
2023 -1024 1404 -1024 conicto
1174 -1024 971 -992 conicto
768 -961 576 -896 conicto
576 -448 lineto
766 -546 951 -593 conicto
1137 -640 1329 -640 conicto
1754 -640 1965 -415 conicto
2176 -190 2176 264 conicto
2176 448 lineto
2042 223 1833 111 conicto
1624 0 1332 0 conicto
848 0 552 376 conicto
256 753 256 1375 conicto
256 1999 552 2375 conicto
848 2752 1332 2752 conicto
1624 2752 1833 2640 conicto
2042 2529 2176 2304 conicto
2176 2688 lineto
2624 2688 lineto
2624 347 lineto
end_ol grestore 
gsave 37.694211 16.895000 translate 0.035278 -0.035278 scale
start_ol
2752 1480 moveto
2752 1280 lineto
704 1280 lineto
733 811 978 565 conicto
1223 320 1660 320 conicto
1914 320 2152 384 conicto
2390 448 2624 576 conicto
2624 192 lineto
2388 67 2140 1 conicto
1893 -64 1639 -64 conicto
1001 -64 628 309 conicto
256 683 256 1320 conicto
256 1979 613 2365 conicto
970 2752 1576 2752 conicto
2120 2752 2436 2410 conicto
2752 2068 2752 1480 conicto
2304 1600 moveto
2299 1950 2099 2159 conicto
1900 2368 1572 2368 conicto
1200 2368 976 2166 conicto
753 1964 719 1597 conicto
2304 1600 lineto
end_ol grestore 
gsave 38.088837 16.895000 translate 0.035278 -0.035278 scale
start_ol
2688 1646 moveto
2688 0 lineto
2240 0 lineto
2240 1632 lineto
2240 2001 2093 2184 conicto
1947 2368 1654 2368 conicto
1302 2368 1099 2146 conicto
896 1925 896 1542 conicto
896 0 lineto
448 0 lineto
448 2688 lineto
896 2688 lineto
896 2304 lineto
1053 2529 1266 2640 conicto
1479 2752 1757 2752 conicto
2217 2752 2452 2471 conicto
2688 2191 2688 1646 conicto
end_ol grestore 
gsave 38.493451 16.895000 translate 0.035278 -0.035278 scale
start_ol
896 3456 moveto
896 2688 lineto
1792 2688 lineto
1792 2368 lineto
896 2368 lineto
896 902 lineto
896 572 984 478 conicto
1073 384 1345 384 conicto
1792 384 lineto
1792 0 lineto
1345 0 lineto
836 0 642 194 conicto
448 389 448 902 conicto
448 2368 lineto
128 2368 lineto
128 2688 lineto
448 2688 lineto
448 3456 lineto
896 3456 lineto
end_ol grestore 
gsave 38.743218 16.895000 translate 0.035278 -0.035278 scale
start_ol
2752 1480 moveto
2752 1280 lineto
704 1280 lineto
733 811 978 565 conicto
1223 320 1660 320 conicto
1914 320 2152 384 conicto
2390 448 2624 576 conicto
2624 192 lineto
2388 67 2140 1 conicto
1893 -64 1639 -64 conicto
1001 -64 628 309 conicto
256 683 256 1320 conicto
256 1979 613 2365 conicto
970 2752 1576 2752 conicto
2120 2752 2436 2410 conicto
2752 2068 2752 1480 conicto
2304 1600 moveto
2299 1950 2099 2159 conicto
1900 2368 1572 2368 conicto
1200 2368 976 2166 conicto
753 1964 719 1597 conicto
2304 1600 lineto
end_ol grestore 
gsave 39.137844 16.895000 translate 0.035278 -0.035278 scale
start_ol
end_ol grestore 
gsave 39.340151 16.895000 translate 0.035278 -0.035278 scale
start_ol
960 3136 moveto
960 1792 lineto
1552 1792 lineto
1881 1792 2060 1967 conicto
2240 2142 2240 2465 conicto
2240 2786 2060 2961 conicto
1881 3136 1552 3136 conicto
960 3136 lineto
448 3520 moveto
1552 3520 lineto
2145 3520 2448 3251 conicto
2752 2983 2752 2465 conicto
2752 1943 2448 1675 conicto
2145 1408 1552 1408 conicto
960 1408 lineto
960 0 lineto
448 0 lineto
448 3520 lineto
end_ol grestore 
gsave 39.714801 16.895000 translate 0.035278 -0.035278 scale
start_ol
1984 2304 moveto
1912 2337 1828 2352 conicto
1744 2368 1642 2368 conicto
1282 2368 1089 2127 conicto
896 1887 896 1437 conicto
896 0 lineto
448 0 lineto
448 2688 lineto
896 2688 lineto
896 2304 lineto
1030 2531 1245 2641 conicto
1460 2752 1767 2752 conicto
1811 2752 1864 2752 conicto
1917 2752 1982 2752 conicto
1984 2304 lineto
end_ol grestore 
gsave 39.977053 16.895000 translate 0.035278 -0.035278 scale
start_ol
1622 1344 moveto
1104 1344 904 1225 conicto
704 1106 704 818 conicto
704 589 854 454 conicto
1004 320 1262 320 conicto
1618 320 1833 572 conicto
2048 825 2048 1244 conicto
2048 1344 lineto
1622 1344 lineto
2496 1513 moveto
2496 0 lineto
2048 0 lineto
2048 384 lineto
1900 154 1679 45 conicto
1458 -64 1138 -64 conicto
733 -64 494 162 conicto
256 389 256 769 conicto
256 1213 555 1438 conicto
854 1664 1448 1664 conicto
2048 1664 lineto
2048 1712 lineto
2048 2025 1851 2196 conicto
1655 2368 1300 2368 conicto
1074 2368 860 2320 conicto
646 2272 448 2176 conicto
448 2560 lineto
687 2656 912 2704 conicto
1138 2752 1351 2752 conicto
1927 2752 2211 2444 conicto
2496 2137 2496 1513 conicto
end_ol grestore 
gsave 40.369182 16.895000 translate 0.035278 -0.035278 scale
start_ol
2368 2560 moveto
2368 2176 lineto
2180 2272 1991 2320 conicto
1803 2368 1611 2368 conicto
1180 2368 942 2099 conicto
704 1830 704 1344 conicto
704 858 942 589 conicto
1180 320 1611 320 conicto
1803 320 1991 368 conicto
2180 416 2368 512 conicto
2368 128 lineto
2184 32 1987 -16 conicto
1791 -64 1569 -64 conicto
966 -64 611 316 conicto
256 697 256 1344 conicto
256 2000 615 2376 conicto
974 2752 1598 2752 conicto
1801 2752 1994 2704 conicto
2187 2656 2368 2560 conicto
end_ol grestore 
gsave 40.721350 16.895000 translate 0.035278 -0.035278 scale
start_ol
896 3456 moveto
896 2688 lineto
1792 2688 lineto
1792 2368 lineto
896 2368 lineto
896 902 lineto
896 572 984 478 conicto
1073 384 1345 384 conicto
1792 384 lineto
1792 0 lineto
1345 0 lineto
836 0 642 194 conicto
448 389 448 902 conicto
448 2368 lineto
128 2368 lineto
128 2688 lineto
448 2688 lineto
448 3456 lineto
896 3456 lineto
end_ol grestore 
gsave 40.971117 16.895000 translate 0.035278 -0.035278 scale
start_ol
448 2688 moveto
896 2688 lineto
896 0 lineto
448 0 lineto
448 2688 lineto
448 3712 moveto
896 3712 lineto
896 3136 lineto
448 3136 lineto
448 3712 lineto
end_ol grestore 
gsave 41.148446 16.895000 translate 0.035278 -0.035278 scale
start_ol
2368 2560 moveto
2368 2176 lineto
2180 2272 1991 2320 conicto
1803 2368 1611 2368 conicto
1180 2368 942 2099 conicto
704 1830 704 1344 conicto
704 858 942 589 conicto
1180 320 1611 320 conicto
1803 320 1991 368 conicto
2180 416 2368 512 conicto
2368 128 lineto
2184 32 1987 -16 conicto
1791 -64 1569 -64 conicto
966 -64 611 316 conicto
256 697 256 1344 conicto
256 2000 615 2376 conicto
974 2752 1598 2752 conicto
1801 2752 1994 2704 conicto
2187 2656 2368 2560 conicto
end_ol grestore 
gsave 41.500614 16.895000 translate 0.035278 -0.035278 scale
start_ol
1622 1344 moveto
1104 1344 904 1225 conicto
704 1106 704 818 conicto
704 589 854 454 conicto
1004 320 1262 320 conicto
1618 320 1833 572 conicto
2048 825 2048 1244 conicto
2048 1344 lineto
1622 1344 lineto
2496 1513 moveto
2496 0 lineto
2048 0 lineto
2048 384 lineto
1900 154 1679 45 conicto
1458 -64 1138 -64 conicto
733 -64 494 162 conicto
256 389 256 769 conicto
256 1213 555 1438 conicto
854 1664 1448 1664 conicto
2048 1664 lineto
2048 1712 lineto
2048 2025 1851 2196 conicto
1655 2368 1300 2368 conicto
1074 2368 860 2320 conicto
646 2272 448 2176 conicto
448 2560 lineto
687 2656 912 2704 conicto
1138 2752 1351 2752 conicto
1927 2752 2211 2444 conicto
2496 2137 2496 1513 conicto
end_ol grestore 
gsave 41.892743 16.895000 translate 0.035278 -0.035278 scale
start_ol
end_ol grestore 
gsave 42.095050 16.895000 translate 0.035278 -0.035278 scale
start_ol
938 384 moveto
2643 384 lineto
2643 0 lineto
384 0 lineto
384 384 lineto
654 668 1119 1146 conicto
1584 1625 1704 1763 conicto
1931 2023 2021 2203 conicto
2112 2384 2112 2558 conicto
2112 2842 1913 3021 conicto
1715 3200 1397 3200 conicto
1171 3200 920 3104 conicto
669 3009 384 2816 conicto
384 3328 lineto
678 3455 933 3519 conicto
1188 3584 1400 3584 conicto
1959 3584 2291 3309 conicto
2624 3034 2624 2574 conicto
2624 2356 2540 2160 conicto
2457 1965 2237 1700 conicto
2177 1631 1852 1302 conicto
1528 974 938 384 conicto
end_ol grestore 
gsave 37.596250 17.695000 translate 0.035278 -0.035278 scale
start_ol
3136 3264 moveto
3136 2752 lineto
2892 2977 2616 3088 conicto
2340 3200 2030 3200 conicto
1418 3200 1093 2829 conicto
768 2459 768 1759 conicto
768 1061 1093 690 conicto
1418 320 2030 320 conicto
2340 320 2616 431 conicto
2892 543 3136 768 conicto
3136 256 lineto
2882 96 2599 16 conicto
2316 -64 2000 -64 conicto
1189 -64 722 424 conicto
256 913 256 1759 conicto
256 2607 722 3095 conicto
1189 3584 2000 3584 conicto
2320 3584 2603 3504 conicto
2887 3424 3136 3264 conicto
end_ol grestore 
gsave 38.043330 17.695000 translate 0.035278 -0.035278 scale
start_ol
448 3712 moveto
896 3712 lineto
896 0 lineto
448 0 lineto
448 3712 lineto
end_ol grestore 
gsave 38.220658 17.695000 translate 0.035278 -0.035278 scale
start_ol
448 1040 moveto
448 2688 lineto
896 2688 lineto
896 1057 lineto
896 689 1042 504 conicto
1188 320 1481 320 conicto
1832 320 2036 541 conicto
2240 763 2240 1145 conicto
2240 2688 lineto
2688 2688 lineto
2688 0 lineto
2240 0 lineto
2240 384 lineto
2081 157 1870 46 conicto
1660 -64 1382 -64 conicto
923 -64 685 217 conicto
448 499 448 1040 conicto
1554 2752 moveto
1554 2752 lineto
end_ol grestore 
gsave 38.625272 17.695000 translate 0.035278 -0.035278 scale
start_ol
2112 2560 moveto
2112 2176 lineto
1932 2272 1738 2320 conicto
1544 2368 1336 2368 conicto
1020 2368 862 2269 conicto
704 2170 704 1972 conicto
704 1821 814 1735 conicto
925 1649 1260 1571 conicto
1403 1538 lineto
1857 1438 2048 1255 conicto
2240 1072 2240 744 conicto
2240 371 1954 153 conicto
1668 -64 1167 -64 conicto
958 -64 732 -16 conicto
506 32 256 128 conicto
256 576 lineto
491 448 719 384 conicto
947 320 1170 320 conicto
1470 320 1631 425 conicto
1792 531 1792 722 conicto
1792 900 1678 994 conicto
1564 1089 1177 1177 conicto
1032 1212 lineto
621 1298 438 1476 conicto
256 1654 256 1964 conicto
256 2341 520 2546 conicto
784 2752 1269 2752 conicto
1509 2752 1721 2704 conicto
1933 2656 2112 2560 conicto
end_ol grestore 
gsave 38.957457 17.695000 translate 0.035278 -0.035278 scale
start_ol
896 3456 moveto
896 2688 lineto
1792 2688 lineto
1792 2368 lineto
896 2368 lineto
896 902 lineto
896 572 984 478 conicto
1073 384 1345 384 conicto
1792 384 lineto
1792 0 lineto
1345 0 lineto
836 0 642 194 conicto
448 389 448 902 conicto
448 2368 lineto
128 2368 lineto
128 2688 lineto
448 2688 lineto
448 3456 lineto
896 3456 lineto
end_ol grestore 
gsave 39.207224 17.695000 translate 0.035278 -0.035278 scale
start_ol
2752 1480 moveto
2752 1280 lineto
704 1280 lineto
733 811 978 565 conicto
1223 320 1660 320 conicto
1914 320 2152 384 conicto
2390 448 2624 576 conicto
2624 192 lineto
2388 67 2140 1 conicto
1893 -64 1639 -64 conicto
1001 -64 628 309 conicto
256 683 256 1320 conicto
256 1979 613 2365 conicto
970 2752 1576 2752 conicto
2120 2752 2436 2410 conicto
2752 2068 2752 1480 conicto
2304 1600 moveto
2299 1950 2099 2159 conicto
1900 2368 1572 2368 conicto
1200 2368 976 2166 conicto
753 1964 719 1597 conicto
2304 1600 lineto
end_ol grestore 
gsave 39.601850 17.695000 translate 0.035278 -0.035278 scale
start_ol
1984 2304 moveto
1912 2337 1828 2352 conicto
1744 2368 1642 2368 conicto
1282 2368 1089 2127 conicto
896 1887 896 1437 conicto
896 0 lineto
448 0 lineto
448 2688 lineto
896 2688 lineto
896 2304 lineto
1030 2531 1245 2641 conicto
1460 2752 1767 2752 conicto
1811 2752 1864 2752 conicto
1917 2752 1982 2752 conicto
1984 2304 lineto
end_ol grestore 
gsave 39.864101 17.695000 translate 0.035278 -0.035278 scale
start_ol
1696 3047 moveto
1042 1280 lineto
2352 1280 lineto
1696 3047 lineto
1424 3520 moveto
1970 3520 lineto
3328 0 lineto
2827 0 lineto
2502 896 lineto
897 896 lineto
572 0 lineto
64 0 lineto
1424 3520 lineto
end_ol grestore 
gsave 40.301193 17.695000 translate 0.035278 -0.035278 scale
start_ol
2176 1375 moveto
2176 1848 1982 2108 conicto
1789 2368 1439 2368 conicto
1091 2368 897 2108 conicto
704 1848 704 1375 conicto
704 904 897 644 conicto
1091 384 1439 384 conicto
1789 384 1982 644 conicto
2176 904 2176 1375 conicto
2624 347 moveto
2624 -347 2323 -685 conicto
2023 -1024 1404 -1024 conicto
1174 -1024 971 -992 conicto
768 -961 576 -896 conicto
576 -448 lineto
766 -546 951 -593 conicto
1137 -640 1329 -640 conicto
1754 -640 1965 -415 conicto
2176 -190 2176 264 conicto
2176 448 lineto
2042 223 1833 111 conicto
1624 0 1332 0 conicto
848 0 552 376 conicto
256 753 256 1375 conicto
256 1999 552 2375 conicto
848 2752 1332 2752 conicto
1624 2752 1833 2640 conicto
2042 2529 2176 2304 conicto
2176 2688 lineto
2624 2688 lineto
2624 347 lineto
end_ol grestore 
gsave 40.708312 17.695000 translate 0.035278 -0.035278 scale
start_ol
2752 1480 moveto
2752 1280 lineto
704 1280 lineto
733 811 978 565 conicto
1223 320 1660 320 conicto
1914 320 2152 384 conicto
2390 448 2624 576 conicto
2624 192 lineto
2388 67 2140 1 conicto
1893 -64 1639 -64 conicto
1001 -64 628 309 conicto
256 683 256 1320 conicto
256 1979 613 2365 conicto
970 2752 1576 2752 conicto
2120 2752 2436 2410 conicto
2752 2068 2752 1480 conicto
2304 1600 moveto
2299 1950 2099 2159 conicto
1900 2368 1572 2368 conicto
1200 2368 976 2166 conicto
753 1964 719 1597 conicto
2304 1600 lineto
end_ol grestore 
gsave 41.102938 17.695000 translate 0.035278 -0.035278 scale
start_ol
2688 1646 moveto
2688 0 lineto
2240 0 lineto
2240 1632 lineto
2240 2001 2093 2184 conicto
1947 2368 1654 2368 conicto
1302 2368 1099 2146 conicto
896 1925 896 1542 conicto
896 0 lineto
448 0 lineto
448 2688 lineto
896 2688 lineto
896 2304 lineto
1053 2529 1266 2640 conicto
1479 2752 1757 2752 conicto
2217 2752 2452 2471 conicto
2688 2191 2688 1646 conicto
end_ol grestore 
gsave 41.507552 17.695000 translate 0.035278 -0.035278 scale
start_ol
896 3456 moveto
896 2688 lineto
1792 2688 lineto
1792 2368 lineto
896 2368 lineto
896 902 lineto
896 572 984 478 conicto
1073 384 1345 384 conicto
1792 384 lineto
1792 0 lineto
1345 0 lineto
836 0 642 194 conicto
448 389 448 902 conicto
448 2368 lineto
128 2368 lineto
128 2688 lineto
448 2688 lineto
448 3456 lineto
896 3456 lineto
end_ol grestore 
0.100000 slw
[] 0 sd
1.000000 1.000000 1.000000 srgb
n 46.350000 15.850000 m 46.350000 18.450000 l 52.007500 18.450000 l 52.007500 15.850000 l f
n 46.350000 16.350000 m 46.350000 16.350000 0.500000 0.500000 180.000000 270.000000 ellipse f
n 52.007500 16.350000 m 52.007500 16.350000 0.500000 0.500000 270.000000 360.000000 ellipse f
n 45.850000 16.350000 m 45.850000 17.950000 l 52.507500 17.950000 l 52.507500 16.350000 l f
n 46.350000 17.950000 m 46.350000 17.950000 0.500000 0.500000 90.000000 180.000000 ellipse f
n 52.007500 17.950000 m 52.007500 17.950000 0.500000 0.500000 0.000000 90.000000 ellipse f
0.000000 0.000000 0.000000 srgb
n 46.350000 15.850000 m 52.007500 15.850000 l s
n 46.350000 18.450000 m 52.007500 18.450000 l s
n 46.350000 16.350000 0.500000 0.500000 180.000000 270.000000 ellipse s
n 52.007500 16.350000 0.500000 0.500000 270.000000 360.000000 ellipse s
n 45.850000 16.350000 m 45.850000 17.950000 l s
n 52.507500 16.350000 m 52.507500 17.950000 l s
n 46.350000 17.950000 0.500000 0.500000 90.000000 180.000000 ellipse s
n 52.007500 17.950000 0.500000 0.500000 0.000000 90.000000 ellipse s
gsave 46.350000 16.945000 translate 0.035278 -0.035278 scale
start_ol
1696 3047 moveto
1042 1280 lineto
2352 1280 lineto
1696 3047 lineto
1424 3520 moveto
1970 3520 lineto
3328 0 lineto
2827 0 lineto
2502 896 lineto
897 896 lineto
572 0 lineto
64 0 lineto
1424 3520 lineto
end_ol grestore 
gsave 46.787092 16.945000 translate 0.035278 -0.035278 scale
start_ol
2176 1375 moveto
2176 1848 1982 2108 conicto
1789 2368 1439 2368 conicto
1091 2368 897 2108 conicto
704 1848 704 1375 conicto
704 904 897 644 conicto
1091 384 1439 384 conicto
1789 384 1982 644 conicto
2176 904 2176 1375 conicto
2624 347 moveto
2624 -347 2323 -685 conicto
2023 -1024 1404 -1024 conicto
1174 -1024 971 -992 conicto
768 -961 576 -896 conicto
576 -448 lineto
766 -546 951 -593 conicto
1137 -640 1329 -640 conicto
1754 -640 1965 -415 conicto
2176 -190 2176 264 conicto
2176 448 lineto
2042 223 1833 111 conicto
1624 0 1332 0 conicto
848 0 552 376 conicto
256 753 256 1375 conicto
256 1999 552 2375 conicto
848 2752 1332 2752 conicto
1624 2752 1833 2640 conicto
2042 2529 2176 2304 conicto
2176 2688 lineto
2624 2688 lineto
2624 347 lineto
end_ol grestore 
gsave 47.194211 16.945000 translate 0.035278 -0.035278 scale
start_ol
2752 1480 moveto
2752 1280 lineto
704 1280 lineto
733 811 978 565 conicto
1223 320 1660 320 conicto
1914 320 2152 384 conicto
2390 448 2624 576 conicto
2624 192 lineto
2388 67 2140 1 conicto
1893 -64 1639 -64 conicto
1001 -64 628 309 conicto
256 683 256 1320 conicto
256 1979 613 2365 conicto
970 2752 1576 2752 conicto
2120 2752 2436 2410 conicto
2752 2068 2752 1480 conicto
2304 1600 moveto
2299 1950 2099 2159 conicto
1900 2368 1572 2368 conicto
1200 2368 976 2166 conicto
753 1964 719 1597 conicto
2304 1600 lineto
end_ol grestore 
gsave 47.588837 16.945000 translate 0.035278 -0.035278 scale
start_ol
2688 1646 moveto
2688 0 lineto
2240 0 lineto
2240 1632 lineto
2240 2001 2093 2184 conicto
1947 2368 1654 2368 conicto
1302 2368 1099 2146 conicto
896 1925 896 1542 conicto
896 0 lineto
448 0 lineto
448 2688 lineto
896 2688 lineto
896 2304 lineto
1053 2529 1266 2640 conicto
1479 2752 1757 2752 conicto
2217 2752 2452 2471 conicto
2688 2191 2688 1646 conicto
end_ol grestore 
gsave 47.993451 16.945000 translate 0.035278 -0.035278 scale
start_ol
896 3456 moveto
896 2688 lineto
1792 2688 lineto
1792 2368 lineto
896 2368 lineto
896 902 lineto
896 572 984 478 conicto
1073 384 1345 384 conicto
1792 384 lineto
1792 0 lineto
1345 0 lineto
836 0 642 194 conicto
448 389 448 902 conicto
448 2368 lineto
128 2368 lineto
128 2688 lineto
448 2688 lineto
448 3456 lineto
896 3456 lineto
end_ol grestore 
gsave 48.243218 16.945000 translate 0.035278 -0.035278 scale
start_ol
2752 1480 moveto
2752 1280 lineto
704 1280 lineto
733 811 978 565 conicto
1223 320 1660 320 conicto
1914 320 2152 384 conicto
2390 448 2624 576 conicto
2624 192 lineto
2388 67 2140 1 conicto
1893 -64 1639 -64 conicto
1001 -64 628 309 conicto
256 683 256 1320 conicto
256 1979 613 2365 conicto
970 2752 1576 2752 conicto
2120 2752 2436 2410 conicto
2752 2068 2752 1480 conicto
2304 1600 moveto
2299 1950 2099 2159 conicto
1900 2368 1572 2368 conicto
1200 2368 976 2166 conicto
753 1964 719 1597 conicto
2304 1600 lineto
end_ol grestore 
gsave 48.637844 16.945000 translate 0.035278 -0.035278 scale
start_ol
end_ol grestore 
gsave 48.840151 16.945000 translate 0.035278 -0.035278 scale
start_ol
960 3136 moveto
960 1792 lineto
1552 1792 lineto
1881 1792 2060 1967 conicto
2240 2142 2240 2465 conicto
2240 2786 2060 2961 conicto
1881 3136 1552 3136 conicto
960 3136 lineto
448 3520 moveto
1552 3520 lineto
2145 3520 2448 3251 conicto
2752 2983 2752 2465 conicto
2752 1943 2448 1675 conicto
2145 1408 1552 1408 conicto
960 1408 lineto
960 0 lineto
448 0 lineto
448 3520 lineto
end_ol grestore 
gsave 49.214801 16.945000 translate 0.035278 -0.035278 scale
start_ol
1984 2304 moveto
1912 2337 1828 2352 conicto
1744 2368 1642 2368 conicto
1282 2368 1089 2127 conicto
896 1887 896 1437 conicto
896 0 lineto
448 0 lineto
448 2688 lineto
896 2688 lineto
896 2304 lineto
1030 2531 1245 2641 conicto
1460 2752 1767 2752 conicto
1811 2752 1864 2752 conicto
1917 2752 1982 2752 conicto
1984 2304 lineto
end_ol grestore 
gsave 49.477053 16.945000 translate 0.035278 -0.035278 scale
start_ol
1622 1344 moveto
1104 1344 904 1225 conicto
704 1106 704 818 conicto
704 589 854 454 conicto
1004 320 1262 320 conicto
1618 320 1833 572 conicto
2048 825 2048 1244 conicto
2048 1344 lineto
1622 1344 lineto
2496 1513 moveto
2496 0 lineto
2048 0 lineto
2048 384 lineto
1900 154 1679 45 conicto
1458 -64 1138 -64 conicto
733 -64 494 162 conicto
256 389 256 769 conicto
256 1213 555 1438 conicto
854 1664 1448 1664 conicto
2048 1664 lineto
2048 1712 lineto
2048 2025 1851 2196 conicto
1655 2368 1300 2368 conicto
1074 2368 860 2320 conicto
646 2272 448 2176 conicto
448 2560 lineto
687 2656 912 2704 conicto
1138 2752 1351 2752 conicto
1927 2752 2211 2444 conicto
2496 2137 2496 1513 conicto
end_ol grestore 
gsave 49.869182 16.945000 translate 0.035278 -0.035278 scale
start_ol
2368 2560 moveto
2368 2176 lineto
2180 2272 1991 2320 conicto
1803 2368 1611 2368 conicto
1180 2368 942 2099 conicto
704 1830 704 1344 conicto
704 858 942 589 conicto
1180 320 1611 320 conicto
1803 320 1991 368 conicto
2180 416 2368 512 conicto
2368 128 lineto
2184 32 1987 -16 conicto
1791 -64 1569 -64 conicto
966 -64 611 316 conicto
256 697 256 1344 conicto
256 2000 615 2376 conicto
974 2752 1598 2752 conicto
1801 2752 1994 2704 conicto
2187 2656 2368 2560 conicto
end_ol grestore 
gsave 50.221350 16.945000 translate 0.035278 -0.035278 scale
start_ol
896 3456 moveto
896 2688 lineto
1792 2688 lineto
1792 2368 lineto
896 2368 lineto
896 902 lineto
896 572 984 478 conicto
1073 384 1345 384 conicto
1792 384 lineto
1792 0 lineto
1345 0 lineto
836 0 642 194 conicto
448 389 448 902 conicto
448 2368 lineto
128 2368 lineto
128 2688 lineto
448 2688 lineto
448 3456 lineto
896 3456 lineto
end_ol grestore 
gsave 50.471117 16.945000 translate 0.035278 -0.035278 scale
start_ol
448 2688 moveto
896 2688 lineto
896 0 lineto
448 0 lineto
448 2688 lineto
448 3712 moveto
896 3712 lineto
896 3136 lineto
448 3136 lineto
448 3712 lineto
end_ol grestore 
gsave 50.648446 16.945000 translate 0.035278 -0.035278 scale
start_ol
2368 2560 moveto
2368 2176 lineto
2180 2272 1991 2320 conicto
1803 2368 1611 2368 conicto
1180 2368 942 2099 conicto
704 1830 704 1344 conicto
704 858 942 589 conicto
1180 320 1611 320 conicto
1803 320 1991 368 conicto
2180 416 2368 512 conicto
2368 128 lineto
2184 32 1987 -16 conicto
1791 -64 1569 -64 conicto
966 -64 611 316 conicto
256 697 256 1344 conicto
256 2000 615 2376 conicto
974 2752 1598 2752 conicto
1801 2752 1994 2704 conicto
2187 2656 2368 2560 conicto
end_ol grestore 
gsave 51.000614 16.945000 translate 0.035278 -0.035278 scale
start_ol
1622 1344 moveto
1104 1344 904 1225 conicto
704 1106 704 818 conicto
704 589 854 454 conicto
1004 320 1262 320 conicto
1618 320 1833 572 conicto
2048 825 2048 1244 conicto
2048 1344 lineto
1622 1344 lineto
2496 1513 moveto
2496 0 lineto
2048 0 lineto
2048 384 lineto
1900 154 1679 45 conicto
1458 -64 1138 -64 conicto
733 -64 494 162 conicto
256 389 256 769 conicto
256 1213 555 1438 conicto
854 1664 1448 1664 conicto
2048 1664 lineto
2048 1712 lineto
2048 2025 1851 2196 conicto
1655 2368 1300 2368 conicto
1074 2368 860 2320 conicto
646 2272 448 2176 conicto
448 2560 lineto
687 2656 912 2704 conicto
1138 2752 1351 2752 conicto
1927 2752 2211 2444 conicto
2496 2137 2496 1513 conicto
end_ol grestore 
gsave 51.392743 16.945000 translate 0.035278 -0.035278 scale
start_ol
end_ol grestore 
gsave 51.595050 16.945000 translate 0.035278 -0.035278 scale
start_ol
1897 1936 moveto
2269 1862 2478 1627 conicto
2688 1392 2688 1046 conicto
2688 516 2331 226 conicto
1975 -64 1319 -64 conicto
1099 -64 865 -16 conicto
632 32 384 128 conicto
384 576 lineto
576 449 805 384 conicto
1035 320 1285 320 conicto
1720 320 1948 504 conicto
2176 688 2176 1039 conicto
2176 1363 1967 1545 conicto
1759 1728 1388 1728 conicto
1024 1728 lineto
1024 2112 lineto
1405 2112 lineto
1717 2112 1882 2250 conicto
2048 2388 2048 2648 conicto
2048 2915 1877 3057 conicto
1706 3200 1388 3200 conicto
1200 3200 985 3153 conicto
770 3107 512 3008 conicto
512 3456 lineto
773 3520 1001 3552 conicto
1229 3584 1431 3584 conicto
1952 3584 2256 3343 conicto
2560 3102 2560 2692 conicto
2560 2406 2387 2209 conicto
2215 2012 1897 1936 conicto
end_ol grestore 
gsave 46.587500 17.745000 translate 0.035278 -0.035278 scale
start_ol
1890 3200 moveto
1375 3200 1071 2813 conicto
768 2426 768 1759 conicto
768 1094 1071 707 conicto
1375 320 1890 320 conicto
2406 320 2707 707 conicto
3008 1094 3008 1759 conicto
3008 2426 2707 2813 conicto
2406 3200 1890 3200 conicto
2553 67 moveto
3181 -640 lineto
2607 -640 lineto
2087 -55 lineto
2009 -59 1968 -61 conicto
1927 -64 1889 -64 conicto
1146 -64 701 431 conicto
256 927 256 1759 conicto
256 2593 701 3088 conicto
1146 3584 1890 3584 conicto
2632 3584 3076 3088 conicto
3520 2592 3520 1758 conicto
3520 1146 3271 710 conicto
3023 274 2553 67 conicto
end_ol grestore 
gsave 47.092027 17.745000 translate 0.035278 -0.035278 scale
start_ol
448 3520 moveto
960 3520 lineto
960 384 lineto
2688 384 lineto
2688 0 lineto
448 0 lineto
448 3520 lineto
end_ol grestore 
gsave 47.439202 17.745000 translate 0.035278 -0.035278 scale
start_ol
2752 1480 moveto
2752 1280 lineto
704 1280 lineto
733 811 978 565 conicto
1223 320 1660 320 conicto
1914 320 2152 384 conicto
2390 448 2624 576 conicto
2624 192 lineto
2388 67 2140 1 conicto
1893 -64 1639 -64 conicto
1001 -64 628 309 conicto
256 683 256 1320 conicto
256 1979 613 2365 conicto
970 2752 1576 2752 conicto
2120 2752 2436 2410 conicto
2752 2068 2752 1480 conicto
2304 1600 moveto
2299 1950 2099 2159 conicto
1900 2368 1572 2368 conicto
1200 2368 976 2166 conicto
753 1964 719 1597 conicto
2304 1600 lineto
end_ol grestore 
gsave 47.833828 17.745000 translate 0.035278 -0.035278 scale
start_ol
1622 1344 moveto
1104 1344 904 1225 conicto
704 1106 704 818 conicto
704 589 854 454 conicto
1004 320 1262 320 conicto
1618 320 1833 572 conicto
2048 825 2048 1244 conicto
2048 1344 lineto
1622 1344 lineto
2496 1513 moveto
2496 0 lineto
2048 0 lineto
2048 384 lineto
1900 154 1679 45 conicto
1458 -64 1138 -64 conicto
733 -64 494 162 conicto
256 389 256 769 conicto
256 1213 555 1438 conicto
854 1664 1448 1664 conicto
2048 1664 lineto
2048 1712 lineto
2048 2025 1851 2196 conicto
1655 2368 1300 2368 conicto
1074 2368 860 2320 conicto
646 2272 448 2176 conicto
448 2560 lineto
687 2656 912 2704 conicto
1138 2752 1351 2752 conicto
1927 2752 2211 2444 conicto
2496 2137 2496 1513 conicto
end_ol grestore 
gsave 48.225957 17.745000 translate 0.035278 -0.035278 scale
start_ol
1984 2304 moveto
1912 2337 1828 2352 conicto
1744 2368 1642 2368 conicto
1282 2368 1089 2127 conicto
896 1887 896 1437 conicto
896 0 lineto
448 0 lineto
448 2688 lineto
896 2688 lineto
896 2304 lineto
1030 2531 1245 2641 conicto
1460 2752 1767 2752 conicto
1811 2752 1864 2752 conicto
1917 2752 1982 2752 conicto
1984 2304 lineto
end_ol grestore 
gsave 48.478221 17.745000 translate 0.035278 -0.035278 scale
start_ol
2688 1646 moveto
2688 0 lineto
2240 0 lineto
2240 1632 lineto
2240 2001 2093 2184 conicto
1947 2368 1654 2368 conicto
1302 2368 1099 2146 conicto
896 1925 896 1542 conicto
896 0 lineto
448 0 lineto
448 2688 lineto
896 2688 lineto
896 2304 lineto
1053 2529 1266 2640 conicto
1479 2752 1757 2752 conicto
2217 2752 2452 2471 conicto
2688 2191 2688 1646 conicto
end_ol grestore 
gsave 48.882835 17.745000 translate 0.035278 -0.035278 scale
start_ol
448 2688 moveto
896 2688 lineto
896 0 lineto
448 0 lineto
448 2688 lineto
448 3712 moveto
896 3712 lineto
896 3136 lineto
448 3136 lineto
448 3712 lineto
end_ol grestore 
gsave 49.060164 17.745000 translate 0.035278 -0.035278 scale
start_ol
2688 1646 moveto
2688 0 lineto
2240 0 lineto
2240 1632 lineto
2240 2001 2093 2184 conicto
1947 2368 1654 2368 conicto
1302 2368 1099 2146 conicto
896 1925 896 1542 conicto
896 0 lineto
448 0 lineto
448 2688 lineto
896 2688 lineto
896 2304 lineto
1053 2529 1266 2640 conicto
1479 2752 1757 2752 conicto
2217 2752 2452 2471 conicto
2688 2191 2688 1646 conicto
end_ol grestore 
gsave 49.464778 17.745000 translate 0.035278 -0.035278 scale
start_ol
2176 1375 moveto
2176 1848 1982 2108 conicto
1789 2368 1439 2368 conicto
1091 2368 897 2108 conicto
704 1848 704 1375 conicto
704 904 897 644 conicto
1091 384 1439 384 conicto
1789 384 1982 644 conicto
2176 904 2176 1375 conicto
2624 347 moveto
2624 -347 2323 -685 conicto
2023 -1024 1404 -1024 conicto
1174 -1024 971 -992 conicto
768 -961 576 -896 conicto
576 -448 lineto
766 -546 951 -593 conicto
1137 -640 1329 -640 conicto
1754 -640 1965 -415 conicto
2176 -190 2176 264 conicto
2176 448 lineto
2042 223 1833 111 conicto
1624 0 1332 0 conicto
848 0 552 376 conicto
256 753 256 1375 conicto
256 1999 552 2375 conicto
848 2752 1332 2752 conicto
1624 2752 1833 2640 conicto
2042 2529 2176 2304 conicto
2176 2688 lineto
2624 2688 lineto
2624 347 lineto
end_ol grestore 
gsave 49.871897 17.745000 translate 0.035278 -0.035278 scale
start_ol
1696 3047 moveto
1042 1280 lineto
2352 1280 lineto
1696 3047 lineto
1424 3520 moveto
1970 3520 lineto
3328 0 lineto
2827 0 lineto
2502 896 lineto
897 896 lineto
572 0 lineto
64 0 lineto
1424 3520 lineto
end_ol grestore 
gsave 50.308989 17.745000 translate 0.035278 -0.035278 scale
start_ol
2176 1375 moveto
2176 1848 1982 2108 conicto
1789 2368 1439 2368 conicto
1091 2368 897 2108 conicto
704 1848 704 1375 conicto
704 904 897 644 conicto
1091 384 1439 384 conicto
1789 384 1982 644 conicto
2176 904 2176 1375 conicto
2624 347 moveto
2624 -347 2323 -685 conicto
2023 -1024 1404 -1024 conicto
1174 -1024 971 -992 conicto
768 -961 576 -896 conicto
576 -448 lineto
766 -546 951 -593 conicto
1137 -640 1329 -640 conicto
1754 -640 1965 -415 conicto
2176 -190 2176 264 conicto
2176 448 lineto
2042 223 1833 111 conicto
1624 0 1332 0 conicto
848 0 552 376 conicto
256 753 256 1375 conicto
256 1999 552 2375 conicto
848 2752 1332 2752 conicto
1624 2752 1833 2640 conicto
2042 2529 2176 2304 conicto
2176 2688 lineto
2624 2688 lineto
2624 347 lineto
end_ol grestore 
gsave 50.716108 17.745000 translate 0.035278 -0.035278 scale
start_ol
2752 1480 moveto
2752 1280 lineto
704 1280 lineto
733 811 978 565 conicto
1223 320 1660 320 conicto
1914 320 2152 384 conicto
2390 448 2624 576 conicto
2624 192 lineto
2388 67 2140 1 conicto
1893 -64 1639 -64 conicto
1001 -64 628 309 conicto
256 683 256 1320 conicto
256 1979 613 2365 conicto
970 2752 1576 2752 conicto
2120 2752 2436 2410 conicto
2752 2068 2752 1480 conicto
2304 1600 moveto
2299 1950 2099 2159 conicto
1900 2368 1572 2368 conicto
1200 2368 976 2166 conicto
753 1964 719 1597 conicto
2304 1600 lineto
end_ol grestore 
gsave 51.110734 17.745000 translate 0.035278 -0.035278 scale
start_ol
2688 1646 moveto
2688 0 lineto
2240 0 lineto
2240 1632 lineto
2240 2001 2093 2184 conicto
1947 2368 1654 2368 conicto
1302 2368 1099 2146 conicto
896 1925 896 1542 conicto
896 0 lineto
448 0 lineto
448 2688 lineto
896 2688 lineto
896 2304 lineto
1053 2529 1266 2640 conicto
1479 2752 1757 2752 conicto
2217 2752 2452 2471 conicto
2688 2191 2688 1646 conicto
end_ol grestore 
gsave 51.515348 17.745000 translate 0.035278 -0.035278 scale
start_ol
896 3456 moveto
896 2688 lineto
1792 2688 lineto
1792 2368 lineto
896 2368 lineto
896 902 lineto
896 572 984 478 conicto
1073 384 1345 384 conicto
1792 384 lineto
1792 0 lineto
1345 0 lineto
836 0 642 194 conicto
448 389 448 902 conicto
448 2368 lineto
128 2368 lineto
128 2688 lineto
448 2688 lineto
448 3456 lineto
896 3456 lineto
end_ol grestore 
0.100000 slw
0 slc
[] 0 sd
n 21.300000 16.900000 m 21.800000 16.900000 l 25.350000 16.900000 l 25.626393 16.900000 l s
0.100000 slw
[] 0 sd
0 slj
0 slc
n 25.238197 17.150000 m 25.738197 16.900000 l 25.238197 16.650000 l s
0.100000 slw
[1.000000] 0 sd
[1.000000] 0 sd
0 slc
n 22.750000 10.700000 m 22.800000 27.900000 l s
0.100000 slw
[1.000000] 0 sd
[1.000000] 0 sd
0 slc
n 34.650000 10.600000 m 34.600000 28.000000 l s
0.100000 slw
[1.000000] 0 sd
[1.000000] 0 sd
0 slc
n 44.250000 10.550000 m 44.350000 27.900000 l s
gsave 16.200000 12.200000 translate 0.035278 -0.035278 scale
start_ol
64 3520 moveto
3264 3520 lineto
3264 2816 lineto
2112 2816 lineto
2112 0 lineto
1216 0 lineto
1216 2816 lineto
64 2816 lineto
64 3520 lineto
end_ol grestore 
gsave 16.637092 12.200000 translate 0.035278 -0.035278 scale
start_ol
448 3520 moveto
1344 3520 lineto
1344 1440 lineto
1344 1010 1494 825 conicto
1644 640 1983 640 conicto
2324 640 2474 825 conicto
2624 1010 2624 1440 conicto
2624 3520 lineto
3520 3520 lineto
3520 1440 lineto
3520 680 3140 308 conicto
2761 -64 1983 -64 conicto
1207 -64 827 308 conicto
448 680 448 1440 conicto
448 3520 lineto
end_ol grestore 
gsave 17.156601 12.200000 translate 0.035278 -0.035278 scale
start_ol
64 3520 moveto
3264 3520 lineto
3264 2816 lineto
2112 2816 lineto
2112 0 lineto
1216 0 lineto
1216 2816 lineto
64 2816 lineto
64 3520 lineto
end_ol grestore 
gsave 17.593693 12.200000 translate 0.035278 -0.035278 scale
start_ol
2079 2944 moveto
1668 2944 1442 2633 conicto
1216 2323 1216 1759 conicto
1216 1197 1442 886 conicto
1668 576 2079 576 conicto
2492 576 2718 886 conicto
2944 1197 2944 1759 conicto
2944 2323 2718 2633 conicto
2492 2944 2079 2944 conicto
2080 3584 moveto
2935 3584 3419 3099 conicto
3904 2614 3904 1759 conicto
3904 906 3419 421 conicto
2935 -64 2080 -64 conicto
1227 -64 741 421 conicto
256 906 256 1759 conicto
256 2614 741 3099 conicto
1227 3584 2080 3584 conicto
end_ol grestore 
gsave 18.138180 12.200000 translate 0.035278 -0.035278 scale
start_ol
1745 1984 moveto
2044 1984 2174 2089 conicto
2304 2195 2304 2436 conicto
2304 2674 2174 2777 conicto
2044 2880 1745 2880 conicto
1344 2880 lineto
1344 1984 lineto
1745 1984 lineto
1344 1344 moveto
1344 0 lineto
448 0 lineto
448 3520 lineto
1846 3520 lineto
2547 3520 2873 3289 conicto
3200 3058 3200 2558 conicto
3200 2213 3033 1991 conicto
2867 1769 2532 1664 conicto
2716 1621 2861 1469 conicto
3007 1317 3156 1009 conicto
3648 0 lineto
2688 0 lineto
2262 883 lineto
2126 1149 1986 1246 conicto
1846 1344 1614 1344 conicto
1344 1344 lineto
end_ol grestore 
gsave 18.630214 12.200000 translate 0.035278 -0.035278 scale
start_ol
448 3520 moveto
1344 3520 lineto
1344 0 lineto
448 0 lineto
448 3520 lineto
end_ol grestore 
gsave 18.867488 12.200000 translate 0.035278 -0.035278 scale
start_ol
2571 640 moveto
1143 640 lineto
918 0 lineto
0 0 lineto
1312 3520 lineto
2400 3520 lineto
3712 0 lineto
2794 0 lineto
2571 640 lineto
1371 1280 moveto
2341 1280 lineto
1857 2689 lineto
1371 1280 lineto
end_ol grestore 
gsave 19.362019 12.200000 translate 0.035278 -0.035278 scale
start_ol
448 3520 moveto
1344 3520 lineto
1344 704 lineto
2944 704 lineto
2944 0 lineto
448 0 lineto
448 3520 lineto
end_ol grestore 
gsave 19.769138 12.200000 translate 0.035278 -0.035278 scale
start_ol
end_ol grestore 
gsave 19.991430 12.200000 translate 0.035278 -0.035278 scale
start_ol
576 640 moveto
1408 640 lineto
1408 2880 lineto
576 2688 lineto
576 3328 lineto
1408 3520 lineto
2304 3520 lineto
2304 640 lineto
3136 640 lineto
3136 0 lineto
576 0 lineto
576 640 lineto
end_ol grestore 
gsave 26.900000 12.200000 translate 0.035278 -0.035278 scale
start_ol
448 3520 moveto
1962 3520 lineto
2653 3520 3022 3221 conicto
3392 2922 3392 2369 conicto
3392 1814 3022 1515 conicto
2653 1216 1962 1216 conicto
1344 1216 lineto
1344 0 lineto
448 0 lineto
448 3520 lineto
1344 2880 moveto
1344 1856 lineto
1862 1856 lineto
2135 1856 2283 1990 conicto
2432 2124 2432 2369 conicto
2432 2615 2283 2747 conicto
2135 2880 1862 2880 conicto
1344 2880 lineto
end_ol grestore 
gsave 27.369561 12.200000 translate 0.035278 -0.035278 scale
start_ol
1745 1984 moveto
2044 1984 2174 2089 conicto
2304 2195 2304 2436 conicto
2304 2674 2174 2777 conicto
2044 2880 1745 2880 conicto
1344 2880 lineto
1344 1984 lineto
1745 1984 lineto
1344 1344 moveto
1344 0 lineto
448 0 lineto
448 3520 lineto
1846 3520 lineto
2547 3520 2873 3289 conicto
3200 3058 3200 2558 conicto
3200 2213 3033 1991 conicto
2867 1769 2532 1664 conicto
2716 1621 2861 1469 conicto
3007 1317 3156 1009 conicto
3648 0 lineto
2688 0 lineto
2262 883 lineto
2126 1149 1986 1246 conicto
1846 1344 1614 1344 conicto
1344 1344 lineto
end_ol grestore 
gsave 27.861595 12.200000 translate 0.035278 -0.035278 scale
start_ol
2571 640 moveto
1143 640 lineto
918 0 lineto
0 0 lineto
1312 3520 lineto
2400 3520 lineto
3712 0 lineto
2794 0 lineto
2571 640 lineto
1371 1280 moveto
2341 1280 lineto
1857 2689 lineto
1371 1280 lineto
end_ol grestore 
gsave 28.356126 12.200000 translate 0.035278 -0.035278 scale
start_ol
3264 191 moveto
3013 65 2740 0 conicto
2468 -64 2172 -64 conicto
1289 -64 772 427 conicto
256 918 256 1759 conicto
256 2602 772 3093 conicto
1289 3584 2172 3584 conicto
2468 3584 2740 3519 conicto
3013 3455 3264 3329 conicto
3264 2624 lineto
3013 2790 2768 2867 conicto
2524 2944 2254 2944 conicto
1770 2944 1493 2628 conicto
1216 2313 1216 1759 conicto
1216 1207 1493 891 conicto
1770 576 2254 576 conicto
2524 576 2768 653 conicto
3013 730 3264 896 conicto
3264 191 lineto
end_ol grestore 
gsave 28.825687 12.200000 translate 0.035278 -0.035278 scale
start_ol
64 3520 moveto
3264 3520 lineto
3264 2816 lineto
2112 2816 lineto
2112 0 lineto
1216 0 lineto
1216 2816 lineto
64 2816 lineto
64 3520 lineto
end_ol grestore 
gsave 29.262779 12.200000 translate 0.035278 -0.035278 scale
start_ol
448 3520 moveto
1344 3520 lineto
1344 0 lineto
448 0 lineto
448 3520 lineto
end_ol grestore 
gsave 29.500052 12.200000 translate 0.035278 -0.035278 scale
start_ol
3264 191 moveto
3013 65 2740 0 conicto
2468 -64 2172 -64 conicto
1289 -64 772 427 conicto
256 918 256 1759 conicto
256 2602 772 3093 conicto
1289 3584 2172 3584 conicto
2468 3584 2740 3519 conicto
3013 3455 3264 3329 conicto
3264 2624 lineto
3013 2790 2768 2867 conicto
2524 2944 2254 2944 conicto
1770 2944 1493 2628 conicto
1216 2313 1216 1759 conicto
1216 1207 1493 891 conicto
1770 576 2254 576 conicto
2524 576 2768 653 conicto
3013 730 3264 896 conicto
3264 191 lineto
end_ol grestore 
gsave 29.969613 12.200000 translate 0.035278 -0.035278 scale
start_ol
2571 640 moveto
1143 640 lineto
918 0 lineto
0 0 lineto
1312 3520 lineto
2400 3520 lineto
3712 0 lineto
2794 0 lineto
2571 640 lineto
1371 1280 moveto
2341 1280 lineto
1857 2689 lineto
1371 1280 lineto
end_ol grestore 
gsave 30.464144 12.200000 translate 0.035278 -0.035278 scale
start_ol
end_ol grestore 
gsave 30.686436 12.200000 translate 0.035278 -0.035278 scale
start_ol
576 640 moveto
1408 640 lineto
1408 2880 lineto
576 2688 lineto
576 3328 lineto
1408 3520 lineto
2304 3520 lineto
2304 640 lineto
3136 640 lineto
3136 0 lineto
576 0 lineto
576 640 lineto
end_ol grestore 
gsave 37.750000 12.200000 translate 0.035278 -0.035278 scale
start_ol
448 3520 moveto
1962 3520 lineto
2653 3520 3022 3221 conicto
3392 2922 3392 2369 conicto
3392 1814 3022 1515 conicto
2653 1216 1962 1216 conicto
1344 1216 lineto
1344 0 lineto
448 0 lineto
448 3520 lineto
1344 2880 moveto
1344 1856 lineto
1862 1856 lineto
2135 1856 2283 1990 conicto
2432 2124 2432 2369 conicto
2432 2615 2283 2747 conicto
2135 2880 1862 2880 conicto
1344 2880 lineto
end_ol grestore 
gsave 38.219561 12.200000 translate 0.035278 -0.035278 scale
start_ol
1745 1984 moveto
2044 1984 2174 2089 conicto
2304 2195 2304 2436 conicto
2304 2674 2174 2777 conicto
2044 2880 1745 2880 conicto
1344 2880 lineto
1344 1984 lineto
1745 1984 lineto
1344 1344 moveto
1344 0 lineto
448 0 lineto
448 3520 lineto
1846 3520 lineto
2547 3520 2873 3289 conicto
3200 3058 3200 2558 conicto
3200 2213 3033 1991 conicto
2867 1769 2532 1664 conicto
2716 1621 2861 1469 conicto
3007 1317 3156 1009 conicto
3648 0 lineto
2688 0 lineto
2262 883 lineto
2126 1149 1986 1246 conicto
1846 1344 1614 1344 conicto
1344 1344 lineto
end_ol grestore 
gsave 38.711595 12.200000 translate 0.035278 -0.035278 scale
start_ol
2571 640 moveto
1143 640 lineto
918 0 lineto
0 0 lineto
1312 3520 lineto
2400 3520 lineto
3712 0 lineto
2794 0 lineto
2571 640 lineto
1371 1280 moveto
2341 1280 lineto
1857 2689 lineto
1371 1280 lineto
end_ol grestore 
gsave 39.206126 12.200000 translate 0.035278 -0.035278 scale
start_ol
3264 191 moveto
3013 65 2740 0 conicto
2468 -64 2172 -64 conicto
1289 -64 772 427 conicto
256 918 256 1759 conicto
256 2602 772 3093 conicto
1289 3584 2172 3584 conicto
2468 3584 2740 3519 conicto
3013 3455 3264 3329 conicto
3264 2624 lineto
3013 2790 2768 2867 conicto
2524 2944 2254 2944 conicto
1770 2944 1493 2628 conicto
1216 2313 1216 1759 conicto
1216 1207 1493 891 conicto
1770 576 2254 576 conicto
2524 576 2768 653 conicto
3013 730 3264 896 conicto
3264 191 lineto
end_ol grestore 
gsave 39.675687 12.200000 translate 0.035278 -0.035278 scale
start_ol
64 3520 moveto
3264 3520 lineto
3264 2816 lineto
2112 2816 lineto
2112 0 lineto
1216 0 lineto
1216 2816 lineto
64 2816 lineto
64 3520 lineto
end_ol grestore 
gsave 40.112779 12.200000 translate 0.035278 -0.035278 scale
start_ol
448 3520 moveto
1344 3520 lineto
1344 0 lineto
448 0 lineto
448 3520 lineto
end_ol grestore 
gsave 40.350052 12.200000 translate 0.035278 -0.035278 scale
start_ol
3264 191 moveto
3013 65 2740 0 conicto
2468 -64 2172 -64 conicto
1289 -64 772 427 conicto
256 918 256 1759 conicto
256 2602 772 3093 conicto
1289 3584 2172 3584 conicto
2468 3584 2740 3519 conicto
3013 3455 3264 3329 conicto
3264 2624 lineto
3013 2790 2768 2867 conicto
2524 2944 2254 2944 conicto
1770 2944 1493 2628 conicto
1216 2313 1216 1759 conicto
1216 1207 1493 891 conicto
1770 576 2254 576 conicto
2524 576 2768 653 conicto
3013 730 3264 896 conicto
3264 191 lineto
end_ol grestore 
gsave 40.819613 12.200000 translate 0.035278 -0.035278 scale
start_ol
2571 640 moveto
1143 640 lineto
918 0 lineto
0 0 lineto
1312 3520 lineto
2400 3520 lineto
3712 0 lineto
2794 0 lineto
2571 640 lineto
1371 1280 moveto
2341 1280 lineto
1857 2689 lineto
1371 1280 lineto
end_ol grestore 
gsave 41.314144 12.200000 translate 0.035278 -0.035278 scale
start_ol
end_ol grestore 
gsave 41.536436 12.200000 translate 0.035278 -0.035278 scale
start_ol
1415 704 moveto
2944 704 lineto
2944 0 lineto
384 0 lineto
384 704 lineto
1700 1829 lineto
1878 1978 1963 2120 conicto
2048 2263 2048 2417 conicto
2048 2655 1876 2799 conicto
1705 2944 1420 2944 conicto
1201 2944 941 2863 conicto
681 2783 384 2624 conicto
384 3392 lineto
695 3486 998 3535 conicto
1302 3584 1593 3584 conicto
2234 3584 2589 3309 conicto
2944 3035 2944 2545 conicto
2944 2261 2798 2016 conicto
2652 1771 2185 1359 conicto
1415 704 lineto
end_ol grestore 
gsave 46.700000 12.200000 translate 0.035278 -0.035278 scale
start_ol
448 3520 moveto
1962 3520 lineto
2653 3520 3022 3221 conicto
3392 2922 3392 2369 conicto
3392 1814 3022 1515 conicto
2653 1216 1962 1216 conicto
1344 1216 lineto
1344 0 lineto
448 0 lineto
448 3520 lineto
1344 2880 moveto
1344 1856 lineto
1862 1856 lineto
2135 1856 2283 1990 conicto
2432 2124 2432 2369 conicto
2432 2615 2283 2747 conicto
2135 2880 1862 2880 conicto
1344 2880 lineto
end_ol grestore 
gsave 47.169561 12.200000 translate 0.035278 -0.035278 scale
start_ol
1745 1984 moveto
2044 1984 2174 2089 conicto
2304 2195 2304 2436 conicto
2304 2674 2174 2777 conicto
2044 2880 1745 2880 conicto
1344 2880 lineto
1344 1984 lineto
1745 1984 lineto
1344 1344 moveto
1344 0 lineto
448 0 lineto
448 3520 lineto
1846 3520 lineto
2547 3520 2873 3289 conicto
3200 3058 3200 2558 conicto
3200 2213 3033 1991 conicto
2867 1769 2532 1664 conicto
2716 1621 2861 1469 conicto
3007 1317 3156 1009 conicto
3648 0 lineto
2688 0 lineto
2262 883 lineto
2126 1149 1986 1246 conicto
1846 1344 1614 1344 conicto
1344 1344 lineto
end_ol grestore 
gsave 47.661595 12.200000 translate 0.035278 -0.035278 scale
start_ol
2571 640 moveto
1143 640 lineto
918 0 lineto
0 0 lineto
1312 3520 lineto
2400 3520 lineto
3712 0 lineto
2794 0 lineto
2571 640 lineto
1371 1280 moveto
2341 1280 lineto
1857 2689 lineto
1371 1280 lineto
end_ol grestore 
gsave 48.156126 12.200000 translate 0.035278 -0.035278 scale
start_ol
3264 191 moveto
3013 65 2740 0 conicto
2468 -64 2172 -64 conicto
1289 -64 772 427 conicto
256 918 256 1759 conicto
256 2602 772 3093 conicto
1289 3584 2172 3584 conicto
2468 3584 2740 3519 conicto
3013 3455 3264 3329 conicto
3264 2624 lineto
3013 2790 2768 2867 conicto
2524 2944 2254 2944 conicto
1770 2944 1493 2628 conicto
1216 2313 1216 1759 conicto
1216 1207 1493 891 conicto
1770 576 2254 576 conicto
2524 576 2768 653 conicto
3013 730 3264 896 conicto
3264 191 lineto
end_ol grestore 
gsave 48.625687 12.200000 translate 0.035278 -0.035278 scale
start_ol
64 3520 moveto
3264 3520 lineto
3264 2816 lineto
2112 2816 lineto
2112 0 lineto
1216 0 lineto
1216 2816 lineto
64 2816 lineto
64 3520 lineto
end_ol grestore 
gsave 49.062779 12.200000 translate 0.035278 -0.035278 scale
start_ol
448 3520 moveto
1344 3520 lineto
1344 0 lineto
448 0 lineto
448 3520 lineto
end_ol grestore 
gsave 49.300052 12.200000 translate 0.035278 -0.035278 scale
start_ol
3264 191 moveto
3013 65 2740 0 conicto
2468 -64 2172 -64 conicto
1289 -64 772 427 conicto
256 918 256 1759 conicto
256 2602 772 3093 conicto
1289 3584 2172 3584 conicto
2468 3584 2740 3519 conicto
3013 3455 3264 3329 conicto
3264 2624 lineto
3013 2790 2768 2867 conicto
2524 2944 2254 2944 conicto
1770 2944 1493 2628 conicto
1216 2313 1216 1759 conicto
1216 1207 1493 891 conicto
1770 576 2254 576 conicto
2524 576 2768 653 conicto
3013 730 3264 896 conicto
3264 191 lineto
end_ol grestore 
gsave 49.769613 12.200000 translate 0.035278 -0.035278 scale
start_ol
2571 640 moveto
1143 640 lineto
918 0 lineto
0 0 lineto
1312 3520 lineto
2400 3520 lineto
3712 0 lineto
2794 0 lineto
2571 640 lineto
1371 1280 moveto
2341 1280 lineto
1857 2689 lineto
1371 1280 lineto
end_ol grestore 
gsave 50.264144 12.200000 translate 0.035278 -0.035278 scale
start_ol
end_ol grestore 
gsave 50.486436 12.200000 translate 0.035278 -0.035278 scale
start_ol
2295 1949 moveto
2645 1855 2826 1622 conicto
3008 1389 3008 1029 conicto
3008 494 2602 215 conicto
2196 -64 1417 -64 conicto
1142 -64 866 -16 conicto
590 32 320 128 conicto
320 832 lineto
582 705 839 640 conicto
1097 576 1347 576 conicto
1717 576 1914 699 conicto
2112 823 2112 1054 conicto
2112 1291 1915 1413 conicto
1718 1536 1333 1536 conicto
960 1536 lineto
960 2176 lineto
1353 2176 lineto
1704 2176 1876 2272 conicto
2048 2368 2048 2564 conicto
2048 2746 1876 2845 conicto
1704 2944 1389 2944 conicto
1157 2944 920 2895 conicto
683 2847 448 2752 conicto
448 3392 lineto
725 3488 997 3536 conicto
1270 3584 1533 3584 conicto
2241 3584 2592 3365 conicto
2944 3147 2944 2708 conicto
2944 2409 2780 2218 conicto
2616 2027 2295 1949 conicto
end_ol grestore 
showpage
